Test Erasure Codes: XOR and TOR

Time to encode xor = 965.0 msec (10.866073MB/s)
Time to decode xor = 958.0 msec (10.94547MB/s)
Decoded Succeeded

Testing TOR(12,6)
Time to encode tor = 901.0 msec (11.637914MB/s)
Erasing 10485760 bytes in 0th position of message
Erasing 10485760 bytes in 1th position of message
Erasing 10485760 bytes in 2th position of message
Erasing 10485760 bytes in 4th position of message
Decoding message[0]
Decoding message[1]
Decoding message[2]
Decoding message[4]
Time to decode tor = 1574.0 msec (26.64742MB/s)
Decoded Succeeded
Time to encode tor = 665.0 msec (15.76806MB/s)
Erasing 10485760 bytes in 0th position of message
Erasing 10485760 bytes in 3th position of message
Erasing 10485760 bytes in 4th position of message
Decoding message[0]
Decoding message[3]
Decoding message[4]
Time to decode tor = 1130.0 msec (27.8383MB/s)
Decoded Succeeded
Time to encode tor = 710.0 msec (14.768676MB/s)
Erasing 10485760 bytes in 2th position of message
Erasing 10485760 bytes in 3th position of message
Erasing 10485760 bytes in 4th position of message
Decoding message[2]
Decoding message[3]
Decoding message[4]
Time to decode tor = 1186.0 msec (26.523846MB/s)
Decoded Succeeded
Time to encode tor = 736.0 msec (14.246957MB/s)
Erasing 10485760 bytes in 0th position of message
Erasing 10485760 bytes in 1th position of message
Erasing 10485760 bytes in 2th position of message
Erasing 10485760 bytes in 3th position of message
Decoding message[0]
Decoding message[1]
Decoding message[2]
Decoding message[3]
Time to decode tor = 1440.0 msec (29.127111MB/s)
Decoded Succeeded
Time to encode tor = 691.0 msec (15.174761MB/s)
Erasing 10485760 bytes in 1th position of message
Erasing 10485760 bytes in 4th position of message
Decoding message[1]
Decoding message[4]
Time to decode tor = 786.0 msec (26.681324MB/s)
Decoded Succeeded
Time to encode tor = 648.0 msec (16.181728MB/s)
Erasing 10485760 bytes in 0th position of message
Erasing 10485760 bytes in 1th position of message
Erasing 10485760 bytes in 2th position of message
Erasing 10485760 bytes in 3th position of message
Erasing 10485760 bytes in 4th position of message
Decoding message[0]
Decoding message[1]
Decoding message[2]
Decoding message[3]
Decoding message[4]
Time to decode tor = 1841.0 msec (28.478436MB/s)
Decoded Succeeded
Time to encode tor = 675.0 msec (15.534459MB/s)
Erasing 10485760 bytes in 3th position of message
Erasing 10485760 bytes in 4th position of message
Decoding message[3]
Decoding message[4]
Time to decode tor = 785.0 msec (26.715313MB/s)
Decoded Succeeded
Time to encode tor = 685.0 msec (15.307679MB/s)
Erasing 10485760 bytes in 2th position of message
Decoding message[2]
Time to decode tor = 374.0 msec (28.03679MB/s)
Decoded Succeeded
Time to encode tor = 706.0 msec (14.852351MB/s)
Erasing 10485760 bytes in 2th position of message
Erasing 10485760 bytes in 3th position of message
Erasing 10485760 bytes in 4th position of message
Decoding message[2]
Decoding message[3]
Decoding message[4]
Time to decode tor = 1231.0 msec (25.554249MB/s)
Decoded Succeeded
Time to encode tor = 762.0 msec (13.760839MB/s)
Erasing 10485760 bytes in 0th position of message
Erasing 10485760 bytes in 1th position of message
Erasing 10485760 bytes in 2th position of message
Erasing 10485760 bytes in 4th position of message
Decoding message[0]
Decoding message[1]
Decoding message[2]
Decoding message[4]
Time to decode tor = 1502.0 msec (27.924793MB/s)
Decoded Succeeded
Time to encode tor = 715.0 msec (14.665399MB/s)
Erasing 10485760 bytes in 1th position of message
Erasing 10485760 bytes in 4th position of message
Decoding message[1]
Decoding message[4]
Time to decode tor = 831.0 msec (25.236486MB/s)
Decoded Succeeded
Time to encode tor = 709.0 msec (14.789506MB/s)
Erasing 10485760 bytes in 0th position of message
Erasing 10485760 bytes in 1th position of message
Erasing 10485760 bytes in 2th position of message
Erasing 10485760 bytes in 3th position of message
Erasing 10485760 bytes in 4th position of message
Decoding message[0]
Decoding message[1]
Decoding message[2]
Decoding message[3]
Decoding message[4]
Time to decode tor = 1961.0 msec (26.735746MB/s)
Decoded Succeeded
Time to encode tor = 657.0 msec (15.960061MB/s)
Erasing 10485760 bytes in 0th position of message
Erasing 10485760 bytes in 1th position of message
Erasing 10485760 bytes in 2th position of message
Erasing 10485760 bytes in 3th position of message
Erasing 10485760 bytes in 4th position of message
Decoding message[0]
Decoding message[1]
Decoding message[2]
Decoding message[3]
Decoding message[4]
Time to decode tor = 1964.0 msec (26.694908MB/s)
Decoded Succeeded
Time to encode tor = 713.0 msec (14.706535MB/s)
Erasing 10485760 bytes in 1th position of message
Erasing 10485760 bytes in 2th position of message
Decoding message[1]
Decoding message[2]
Time to decode tor = 831.0 msec (25.236486MB/s)
Decoded Succeeded
Time to encode tor = 729.0 msec (14.383759MB/s)
Erasing 10485760 bytes in 0th position of message
Erasing 10485760 bytes in 1th position of message
Erasing 10485760 bytes in 2th position of message
Erasing 10485760 bytes in 3th position of message
Decoding message[0]
Decoding message[1]
Decoding message[2]
Decoding message[3]
Time to decode tor = 1496.0 msec (28.03679MB/s)
Decoded Succeeded
Time to encode tor = 670.0 msec (15.650388MB/s)
Erasing 10485760 bytes in 0th position of message
Erasing 10485760 bytes in 3th position of message
Decoding message[0]
Decoding message[3]
Time to decode tor = 666.0 msec (31.48877MB/s)
Decoded Succeeded
Time to encode tor = 688.0 msec (15.240931MB/s)
Erasing 10485760 bytes in 0th position of message
Erasing 10485760 bytes in 4th position of message
Decoding message[0]
Decoding message[4]
Time to decode tor = 724.0 msec (28.966188MB/s)
Decoded Succeeded
Time to encode tor = 674.0 msec (15.5575075MB/s)
Erasing 10485760 bytes in 0th position of message
Erasing 10485760 bytes in 4th position of message
Decoding message[0]
Decoding message[4]
Time to decode tor = 677.0 msec (30.977135MB/s)
Decoded Succeeded
Time to encode tor = 686.0 msec (15.285364MB/s)
Erasing 10485760 bytes in 0th position of message
Erasing 10485760 bytes in 1th position of message
Erasing 10485760 bytes in 2th position of message
Erasing 10485760 bytes in 3th position of message
Erasing 10485760 bytes in 4th position of message
Decoding message[0]
Decoding message[1]
Decoding message[2]
Decoding message[3]
Decoding message[4]
Time to decode tor = 1848.0 msec (28.370564MB/s)
Decoded Succeeded
Time to encode tor = 690.0 msec (15.1967535MB/s)
Erasing 10485760 bytes in 0th position of message
Erasing 10485760 bytes in 1th position of message
Erasing 10485760 bytes in 4th position of message
Decoding message[0]
Decoding message[1]
Decoding message[4]
Time to decode tor = 1126.0 msec (27.937193MB/s)
Decoded Succeeded

Testing TOR(6,3)
Time to encode tor = 766.0 msec (13.688982MB/s)
Erasing 10485760 bytes in 1th position of message
Decoding message[1]
Time to decode tor = 821.0 msec (12.771936MB/s)
Decoded Succeeded
Time to encode tor = 632.0 msec (16.591393MB/s)
Erasing 10485760 bytes in 0th position of message
Erasing 10485760 bytes in 1th position of message
Decoding message[0]
Decoding message[1]
Time to decode tor = 1381.0 msec (15.185749MB/s)
Decoded Succeeded
Time to encode tor = 1008.0 msec (10.402539MB/s)
Erasing 10485760 bytes in 0th position of message
Decoding message[0]
Time to decode tor = 648.0 msec (16.181728MB/s)
Decoded Succeeded
Time to encode tor = 563.0 msec (18.624796MB/s)
Erasing 10485760 bytes in 1th position of message
Decoding message[1]
Time to decode tor = 756.0 msec (13.870053MB/s)
Decoded Succeeded
Time to encode tor = 808.0 msec (12.977426MB/s)
Erasing 10485760 bytes in 0th position of message
Erasing 10485760 bytes in 1th position of message
Decoding message[0]
Decoding message[1]
Time to decode tor = 1443.0 msec (14.5332775MB/s)
Decoded Succeeded
Time to encode tor = 807.0 msec (12.993506MB/s)
Erasing 10485760 bytes in 0th position of message
Decoding message[0]
Time to decode tor = 575.0 msec (18.236105MB/s)
Decoded Succeeded
Time to encode tor = 569.0 msec (18.4284MB/s)
Erasing 10485760 bytes in 0th position of message
Erasing 10485760 bytes in 1th position of message
Decoding message[0]
Decoding message[1]
Time to decode tor = 1366.0 msec (15.352504MB/s)
Decoded Succeeded
Time to encode tor = 578.0 msec (18.141453MB/s)
Erasing 10485760 bytes in 0th position of message
Erasing 10485760 bytes in 1th position of message
Decoding message[0]
Decoding message[1]
Time to decode tor = 1362.0 msec (15.397592MB/s)
Decoded Succeeded
Time to encode tor = 803.0 msec (13.058231MB/s)
Erasing 10485760 bytes in 0th position of message
Erasing 10485760 bytes in 1th position of message
Decoding message[0]
Decoding message[1]
Time to decode tor = 1331.0 msec (15.756213MB/s)
Decoded Succeeded
Time to encode tor = 750.0 msec (13.981013MB/s)
Erasing 10485760 bytes in 0th position of message
Erasing 10485760 bytes in 1th position of message
Decoding message[0]
Decoding message[1]
Time to decode tor = 1379.0 msec (15.207774MB/s)
Decoded Succeeded
Time to encode tor = 898.0 msec (11.676793MB/s)
Erasing 10485760 bytes in 0th position of message
Erasing 10485760 bytes in 1th position of message
Decoding message[0]
Decoding message[1]
Time to decode tor = 1421.0 msec (14.758283MB/s)
Decoded Succeeded
Time to encode tor = 587.0 msec (17.863304MB/s)
Erasing 10485760 bytes in 0th position of message
Erasing 10485760 bytes in 1th position of message
Decoding message[0]
Decoding message[1]
Time to decode tor = 1382.0 msec (15.174761MB/s)
Decoded Succeeded
Time to encode tor = 629.0 msec (16.670525MB/s)
Erasing 10485760 bytes in 0th position of message
Decoding message[0]
Time to decode tor = 594.0 msec (17.652794MB/s)
Decoded Succeeded
Time to encode tor = 786.0 msec (13.340662MB/s)
Erasing 10485760 bytes in 0th position of message
Erasing 10485760 bytes in 1th position of message
Decoding message[0]
Decoding message[1]
Time to decode tor = 1322.0 msec (15.86348MB/s)
Decoded Succeeded
Time to encode tor = 739.0 msec (14.18912MB/s)
Erasing 10485760 bytes in 0th position of message
Decoding message[0]
Time to decode tor = 580.0 msec (18.078897MB/s)
Decoded Succeeded
Time to encode tor = 718.0 msec (14.604122MB/s)
Erasing 10485760 bytes in 0th position of message
Erasing 10485760 bytes in 1th position of message
Decoding message[0]
Decoding message[1]
Time to decode tor = 1353.0 msec (15.500015MB/s)
Decoded Succeeded
Time to encode tor = 625.0 msec (16.777216MB/s)
Erasing 10485760 bytes in 0th position of message
Decoding message[0]
Time to decode tor = 589.0 msec (17.802649MB/s)
Decoded Succeeded
Time to encode tor = 615.0 msec (17.050016MB/s)
Erasing 10485760 bytes in 0th position of message
Erasing 10485760 bytes in 1th position of message
Decoding message[0]
Decoding message[1]
Time to decode tor = 1441.0 msec (14.553449MB/s)
Decoded Succeeded
Time to encode tor = 794.0 msec (13.206246MB/s)
Erasing 10485760 bytes in 1th position of message
Decoding message[1]
Time to decode tor = 788.0 msec (13.306802MB/s)
Decoded Succeeded
Time to encode tor = 784.0 msec (13.374694MB/s)
Erasing 10485760 bytes in 1th position of message
Decoding message[1]
Time to decode tor = 772.0 msec (13.582591MB/s)
Decoded Succeeded

Testing TOR(12,6)
Time to encode tor = 1430.0 msec (7.3326993MB/s)
Erasing 10485760 bytes in 0th position of message
Erasing 10485760 bytes in 1th position of message
Erasing 10485760 bytes in 2th position of message
Erasing 10485760 bytes in 4th position of message
Decoding message[0]
Decoding message[1]
Decoding message[2]
Decoding message[4]
Time to decode tor = 3108.0 msec (13.495187MB/s)
Decoded Succeeded
Time to encode tor = 1474.0 msec (7.113813MB/s)
Erasing 10485760 bytes in 1th position of message
Erasing 10485760 bytes in 3th position of message
Decoding message[1]
Decoding message[3]
Time to decode tor = 1590.0 msec (13.189635MB/s)
Decoded Succeeded
Time to encode tor = 1420.0 msec (7.384338MB/s)
Erasing 10485760 bytes in 2th position of message
Erasing 10485760 bytes in 3th position of message
Decoding message[2]
Decoding message[3]
Time to decode tor = 1541.0 msec (13.609033MB/s)
Decoded Succeeded
Time to encode tor = 1303.0 msec (8.047399MB/s)
Erasing 10485760 bytes in 0th position of message
Erasing 10485760 bytes in 1th position of message
Erasing 10485760 bytes in 2th position of message
Erasing 10485760 bytes in 3th position of message
Erasing 10485760 bytes in 4th position of message
Decoding message[0]
Decoding message[1]
Decoding message[2]
Decoding message[3]
Decoding message[4]
Time to decode tor = 3641.0 msec (14.399561MB/s)
Decoded Succeeded
Time to encode tor = 1513.0 msec (6.930443MB/s)
Erasing 10485760 bytes in 1th position of message
Erasing 10485760 bytes in 3th position of message
Decoding message[1]
Decoding message[3]
Time to decode tor = 1625.0 msec (12.905551MB/s)
Decoded Succeeded
Time to encode tor = 1485.0 msec (7.0611176MB/s)
Erasing 10485760 bytes in 0th position of message
Erasing 10485760 bytes in 1th position of message
Erasing 10485760 bytes in 2th position of message
Erasing 10485760 bytes in 3th position of message
Erasing 10485760 bytes in 4th position of message
Decoding message[0]
Decoding message[1]
Decoding message[2]
Decoding message[3]
Decoding message[4]
Time to decode tor = 3786.0 msec (13.848072MB/s)
Decoded Succeeded
Time to encode tor = 1513.0 msec (6.930443MB/s)
Erasing 10485760 bytes in 0th position of message
Erasing 10485760 bytes in 1th position of message
Erasing 10485760 bytes in 3th position of message
Decoding message[0]
Decoding message[1]
Decoding message[3]
Time to decode tor = 2567.0 msec (12.254492MB/s)
Decoded Succeeded
Time to encode tor = 1392.0 msec (7.5328736MB/s)
Erasing 10485760 bytes in 4th position of message
Decoding message[4]
Time to decode tor = 821.0 msec (12.771936MB/s)
Decoded Succeeded
Time to encode tor = 1404.0 msec (7.46849MB/s)
Erasing 10485760 bytes in 2th position of message
Erasing 10485760 bytes in 3th position of message
Erasing 10485760 bytes in 4th position of message
Decoding message[2]
Decoding message[3]
Decoding message[4]
Time to decode tor = 2320.0 msec (13.559173MB/s)
Decoded Succeeded
Time to encode tor = 1389.0 msec (7.5491433MB/s)
Erasing 10485760 bytes in 0th position of message
Erasing 10485760 bytes in 1th position of message
Erasing 10485760 bytes in 2th position of message
Erasing 10485760 bytes in 3th position of message
Erasing 10485760 bytes in 4th position of message
Decoding message[0]
Decoding message[1]
Decoding message[2]
Decoding message[3]
Decoding message[4]
Time to decode tor = 4446.0 msec (11.792353MB/s)
Decoded Succeeded
Time to encode tor = 1289.0 msec (8.134802MB/s)
Erasing 10485760 bytes in 0th position of message
Erasing 10485760 bytes in 1th position of message
Erasing 10485760 bytes in 2th position of message
Erasing 10485760 bytes in 4th position of message
Decoding message[0]
Decoding message[1]
Decoding message[2]
Decoding message[4]
Time to decode tor = 2912.0 msec (14.403517MB/s)
Decoded Succeeded
Time to encode tor = 1340.0 msec (7.825194MB/s)
Erasing 10485760 bytes in 0th position of message
Erasing 10485760 bytes in 1th position of message
Erasing 10485760 bytes in 2th position of message
Decoding message[0]
Decoding message[1]
Decoding message[2]
Time to decode tor = 2136.0 msec (14.727191MB/s)
Decoded Succeeded
Time to encode tor = 1433.0 msec (7.317348MB/s)
Erasing 10485760 bytes in 1th position of message
Erasing 10485760 bytes in 3th position of message
Decoding message[1]
Decoding message[3]
Time to decode tor = 1533.0 msec (13.680052MB/s)
Decoded Succeeded
Time to encode tor = 1266.0 msec (8.282591MB/s)
Erasing 10485760 bytes in 0th position of message
Erasing 10485760 bytes in 2th position of message
Erasing 10485760 bytes in 3th position of message
Erasing 10485760 bytes in 4th position of message
Decoding message[0]
Decoding message[2]
Decoding message[3]
Decoding message[4]
Time to decode tor = 2927.0 msec (14.329702MB/s)
Decoded Succeeded
Time to encode tor = 1359.0 msec (7.715791MB/s)
Erasing 10485760 bytes in 0th position of message
Erasing 10485760 bytes in 1th position of message
Erasing 10485760 bytes in 2th position of message
Erasing 10485760 bytes in 4th position of message
Decoding message[0]
Decoding message[1]
Decoding message[2]
Decoding message[4]
Time to decode tor = 2861.0 msec (14.660273MB/s)
Decoded Succeeded
Time to encode tor = 1298.0 msec (8.078398MB/s)
Erasing 10485760 bytes in 2th position of message
Erasing 10485760 bytes in 4th position of message
Decoding message[2]
Decoding message[4]
Time to decode tor = 1578.0 msec (13.289937MB/s)
Decoded Succeeded
Time to encode tor = 1323.0 msec (7.9257445MB/s)
Erasing 10485760 bytes in 0th position of message
Erasing 10485760 bytes in 1th position of message
Erasing 10485760 bytes in 3th position of message
Erasing 10485760 bytes in 4th position of message
Decoding message[0]
Decoding message[1]
Decoding message[3]
Decoding message[4]
Time to decode tor = 2871.0 msec (14.609209MB/s)
Decoded Succeeded
Time to encode tor = 1665.0 msec (6.297754MB/s)
Erasing 10485760 bytes in 1th position of message
Erasing 10485760 bytes in 2th position of message
Erasing 10485760 bytes in 3th position of message
Erasing 10485760 bytes in 4th position of message
Decoding message[1]
Decoding message[2]
Decoding message[3]
Decoding message[4]
Time to decode tor = 3247.0 msec (12.917475MB/s)
Decoded Succeeded
Time to encode tor = 1407.0 msec (7.4525657MB/s)
Erasing 10485760 bytes in 2th position of message
Erasing 10485760 bytes in 4th position of message
Decoding message[2]
Decoding message[4]
Time to decode tor = 1774.0 msec (11.821601MB/s)
Decoded Succeeded
Time to encode tor = 1562.0 msec (6.7130346MB/s)
Erasing 10485760 bytes in 1th position of message
Erasing 10485760 bytes in 2th position of message
Erasing 10485760 bytes in 3th position of message
Erasing 10485760 bytes in 4th position of message
Decoding message[1]
Decoding message[2]
Decoding message[3]
Decoding message[4]
Time to decode tor = 3401.0 msec (12.332561MB/s)
Decoded Succeeded

Testing TOR(8,4)
Time to encode tor = 966.0 msec (10.854824MB/s)
Erasing 10485760 bytes in 0th position of message
Erasing 10485760 bytes in 1th position of message
Erasing 10485760 bytes in 2th position of message
Decoding message[0]
Decoding message[1]
Decoding message[2]
Time to decode tor = 2283.0 msec (13.778922MB/s)
Decoded Succeeded
Time to encode tor = 792.0 msec (13.239596MB/s)
Erasing 10485760 bytes in 0th position of message
Erasing 10485760 bytes in 1th position of message
Erasing 10485760 bytes in 2th position of message
Decoding message[0]
Decoding message[1]
Decoding message[2]
Time to decode tor = 2509.0 msec (12.537776MB/s)
Decoded Succeeded
Time to encode tor = 1116.0 msec (9.395843MB/s)
Erasing 10485760 bytes in 0th position of message
Decoding message[0]
Time to decode tor = 691.0 msec (15.174761MB/s)
Decoded Succeeded
Time to encode tor = 1342.0 msec (7.813532MB/s)
Erasing 10485760 bytes in 0th position of message
Erasing 10485760 bytes in 1th position of message
Erasing 10485760 bytes in 2th position of message
Decoding message[0]
Decoding message[1]
Decoding message[2]
Time to decode tor = 2281.0 msec (13.791004MB/s)
Decoded Succeeded
Time to encode tor = 1320.0 msec (7.9437575MB/s)
Erasing 10485760 bytes in 0th position of message
Erasing 10485760 bytes in 1th position of message
Erasing 10485760 bytes in 2th position of message
Decoding message[0]
Decoding message[1]
Decoding message[2]
Time to decode tor = 2199.0 msec (14.305266MB/s)
Decoded Succeeded
Time to encode tor = 1024.0 msec (10.24MB/s)
Erasing 10485760 bytes in 1th position of message
Erasing 10485760 bytes in 2th position of message
Decoding message[1]
Decoding message[2]
Time to decode tor = 1645.0 msec (12.748645MB/s)
Decoded Succeeded
Time to encode tor = 1133.0 msec (9.254863MB/s)
Erasing 10485760 bytes in 2th position of message
Decoding message[2]
Time to decode tor = 820.0 msec (12.787512MB/s)
Decoded Succeeded
Time to encode tor = 1231.0 msec (8.518083MB/s)
Erasing 10485760 bytes in 1th position of message
Decoding message[1]
Time to decode tor = 783.0 msec (13.391775MB/s)
Decoded Succeeded
Time to encode tor = 1083.0 msec (9.682142MB/s)
Erasing 10485760 bytes in 0th position of message
Erasing 10485760 bytes in 1th position of message
Decoding message[0]
Decoding message[1]
Time to decode tor = 1395.0 msec (15.033348MB/s)
Decoded Succeeded
Time to encode tor = 1045.0 msec (10.03422MB/s)
Erasing 10485760 bytes in 0th position of message
Erasing 10485760 bytes in 1th position of message
Erasing 10485760 bytes in 2th position of message
Decoding message[0]
Decoding message[1]
Decoding message[2]
Time to decode tor = 2269.0 msec (13.86394MB/s)
Decoded Succeeded
Time to encode tor = 1213.0 msec (8.6444845MB/s)
Erasing 10485760 bytes in 1th position of message
Erasing 10485760 bytes in 2th position of message
Decoding message[1]
Decoding message[2]
Time to decode tor = 1715.0 msec (12.2282915MB/s)
Decoded Succeeded
Time to encode tor = 1067.0 msec (9.827329MB/s)
Erasing 10485760 bytes in 2th position of message
Decoding message[2]
Time to decode tor = 860.0 msec (12.192744MB/s)
Decoded Succeeded
Time to encode tor = 1054.0 msec (9.948539MB/s)
Erasing 10485760 bytes in 0th position of message
Erasing 10485760 bytes in 1th position of message
Erasing 10485760 bytes in 2th position of message
Decoding message[0]
Decoding message[1]
Decoding message[2]
Time to decode tor = 2172.0 msec (14.483094MB/s)
Decoded Succeeded
Time to encode tor = 1066.0 msec (9.836548MB/s)
Erasing 10485760 bytes in 0th position of message
Erasing 10485760 bytes in 1th position of message
Erasing 10485760 bytes in 2th position of message
Decoding message[0]
Decoding message[1]
Decoding message[2]
Time to decode tor = 2106.0 msec (14.93698MB/s)
Decoded Succeeded
Time to encode tor = 1162.0 msec (9.02389MB/s)
Erasing 10485760 bytes in 2th position of message
Decoding message[2]
Time to decode tor = 797.0 msec (13.156537MB/s)
Decoded Succeeded
Time to encode tor = 990.0 msec (10.591677MB/s)
Erasing 10485760 bytes in 0th position of message
Erasing 10485760 bytes in 1th position of message
Erasing 10485760 bytes in 2th position of message
Decoding message[0]
Decoding message[1]
Decoding message[2]
Time to decode tor = 2493.0 msec (12.618243MB/s)
Decoded Succeeded
Time to encode tor = 1035.0 msec (10.131169MB/s)
Erasing 10485760 bytes in 0th position of message
Erasing 10485760 bytes in 1th position of message
Erasing 10485760 bytes in 2th position of message
Decoding message[0]
Decoding message[1]
Decoding message[2]
Time to decode tor = 2431.0 msec (12.940058MB/s)
Decoded Succeeded
Time to encode tor = 1027.0 msec (10.210088MB/s)
Erasing 10485760 bytes in 0th position of message
Erasing 10485760 bytes in 1th position of message
Erasing 10485760 bytes in 2th position of message
Decoding message[0]
Decoding message[1]
Decoding message[2]
Time to decode tor = 2311.0 msec (13.611978MB/s)
Decoded Succeeded
Time to encode tor = 1040.0 msec (10.082461MB/s)
Erasing 10485760 bytes in 0th position of message
Erasing 10485760 bytes in 1th position of message
Erasing 10485760 bytes in 2th position of message
Decoding message[0]
Decoding message[1]
Decoding message[2]
Time to decode tor = 2335.0 msec (13.472069MB/s)
Decoded Succeeded
Time to encode tor = 1027.0 msec (10.210088MB/s)
Erasing 10485760 bytes in 1th position of message
Erasing 10485760 bytes in 2th position of message
Decoding message[1]
Decoding message[2]
Time to decode tor = 1703.0 msec (12.314457MB/s)
Decoded Succeeded

Testing TOR(6,3)
Time to encode tor = 865.0 msec (12.122266MB/s)
Erasing 10485760 bytes in 1th position of message
Decoding message[1]
Time to decode tor = 863.0 msec (12.150359MB/s)
Decoded Succeeded
Time to encode tor = 638.0 msec (16.43536MB/s)
Erasing 10485760 bytes in 0th position of message
Erasing 10485760 bytes in 1th position of message
Decoding message[0]
Decoding message[1]
Time to decode tor = 1438.0 msec (14.583811MB/s)
Decoded Succeeded
Time to encode tor = 835.0 msec (12.5577965MB/s)
Erasing 10485760 bytes in 0th position of message
Erasing 10485760 bytes in 1th position of message
Decoding message[0]
Decoding message[1]
Time to decode tor = 1508.0 msec (13.906843MB/s)
Decoded Succeeded
Time to encode tor = 633.0 msec (16.565182MB/s)
Erasing 10485760 bytes in 1th position of message
Decoding message[1]
Time to decode tor = 849.0 msec (12.3507185MB/s)
Decoded Succeeded
Time to encode tor = 1300.0 msec (8.065969MB/s)
Erasing 10485760 bytes in 0th position of message
Erasing 10485760 bytes in 1th position of message
Decoding message[0]
Decoding message[1]
Time to decode tor = 1504.0 msec (13.94383MB/s)
Decoded Succeeded
Time to encode tor = 604.0 msec (17.360529MB/s)
Erasing 10485760 bytes in 0th position of message
Erasing 10485760 bytes in 1th position of message
Decoding message[0]
Decoding message[1]
Time to decode tor = 1409.0 msec (14.883974MB/s)
Decoded Succeeded
Time to encode tor = 934.0 msec (11.226724MB/s)
Erasing 10485760 bytes in 0th position of message
Decoding message[0]
Time to decode tor = 632.0 msec (16.591393MB/s)
Decoded Succeeded
Time to encode tor = 848.0 msec (12.365283MB/s)
Erasing 10485760 bytes in 0th position of message
Erasing 10485760 bytes in 1th position of message
Decoding message[0]
Decoding message[1]
Time to decode tor = 1690.0 msec (12.4091835MB/s)
Decoded Succeeded
Time to encode tor = 840.0 msec (12.4830475MB/s)
Erasing 10485760 bytes in 1th position of message
Decoding message[1]
Time to decode tor = 770.0 msec (13.61787MB/s)
Decoded Succeeded
Time to encode tor = 563.0 msec (18.624796MB/s)
Erasing 10485760 bytes in 0th position of message
Erasing 10485760 bytes in 1th position of message
Decoding message[0]
Decoding message[1]
Time to decode tor = 1342.0 msec (15.627064MB/s)
Decoded Succeeded
Time to encode tor = 720.0 msec (14.563556MB/s)
Erasing 10485760 bytes in 0th position of message
Decoding message[0]
Time to decode tor = 570.0 msec (18.39607MB/s)
Decoded Succeeded
Time to encode tor = 603.0 msec (17.38932MB/s)
Erasing 10485760 bytes in 0th position of message
Erasing 10485760 bytes in 1th position of message
Decoding message[0]
Decoding message[1]
Time to decode tor = 1375.0 msec (15.252014MB/s)
Decoded Succeeded
Time to encode tor = 814.0 msec (12.881769MB/s)
Erasing 10485760 bytes in 0th position of message
Erasing 10485760 bytes in 1th position of message
Decoding message[0]
Decoding message[1]
Time to decode tor = 1336.0 msec (15.697246MB/s)
Decoded Succeeded
Time to encode tor = 565.0 msec (18.558867MB/s)
Erasing 10485760 bytes in 0th position of message
Erasing 10485760 bytes in 1th position of message
Decoding message[0]
Decoding message[1]
Time to decode tor = 1332.0 msec (15.744385MB/s)
Decoded Succeeded
Time to encode tor = 673.0 msec (15.580624MB/s)
Erasing 10485760 bytes in 0th position of message
Erasing 10485760 bytes in 1th position of message
Decoding message[0]
Decoding message[1]
Time to decode tor = 1329.0 msec (15.779924MB/s)
Decoded Succeeded
Time to encode tor = 556.0 msec (18.85928MB/s)
Erasing 10485760 bytes in 0th position of message
Erasing 10485760 bytes in 1th position of message
Decoding message[0]
Decoding message[1]
Time to decode tor = 1377.0 msec (15.229862MB/s)
Decoded Succeeded
Time to encode tor = 788.0 msec (13.306802MB/s)
Erasing 10485760 bytes in 0th position of message
Erasing 10485760 bytes in 1th position of message
Decoding message[0]
Decoding message[1]
Time to decode tor = 1386.0 msec (15.130967MB/s)
Decoded Succeeded
Time to encode tor = 563.0 msec (18.624796MB/s)
Erasing 10485760 bytes in 0th position of message
Erasing 10485760 bytes in 1th position of message
Decoding message[0]
Decoding message[1]
Time to decode tor = 1309.0 msec (16.021023MB/s)
Decoded Succeeded
Time to encode tor = 710.0 msec (14.768676MB/s)
Erasing 10485760 bytes in 0th position of message
Erasing 10485760 bytes in 1th position of message
Decoding message[0]
Decoding message[1]
Time to decode tor = 1379.0 msec (15.207774MB/s)
Decoded Succeeded
Time to encode tor = 613.0 msec (17.105644MB/s)
Erasing 10485760 bytes in 0th position of message
Erasing 10485760 bytes in 1th position of message
Decoding message[0]
Decoding message[1]
Time to decode tor = 1363.0 msec (15.386295MB/s)
Decoded Succeeded

Testing TOR(14,7)
Time to encode tor = 1765.0 msec (5.9409404MB/s)
Erasing 10485760 bytes in 0th position of message
Erasing 10485760 bytes in 1th position of message
Erasing 10485760 bytes in 5th position of message
Decoding message[0]
Decoding message[1]
Decoding message[5]
Time to decode tor = 2270.0 msec (13.857833MB/s)
Decoded Succeeded
Time to encode tor = 1803.0 msec (5.815729MB/s)
Erasing 10485760 bytes in 0th position of message
Erasing 10485760 bytes in 2th position of message
Erasing 10485760 bytes in 3th position of message
Erasing 10485760 bytes in 4th position of message
Erasing 10485760 bytes in 5th position of message
Decoding message[0]
Decoding message[2]
Decoding message[3]
Decoding message[4]
Decoding message[5]
Time to decode tor = 3820.0 msec (13.724816MB/s)
Decoded Succeeded
Time to encode tor = 1768.0 msec (5.9308596MB/s)
Erasing 10485760 bytes in 1th position of message
Erasing 10485760 bytes in 3th position of message
Erasing 10485760 bytes in 5th position of message
Decoding message[1]
Decoding message[3]
Decoding message[5]
Time to decode tor = 2575.0 msec (12.216419MB/s)
Decoded Succeeded
Time to encode tor = 1636.0 msec (6.4093885MB/s)
Erasing 10485760 bytes in 1th position of message
Erasing 10485760 bytes in 2th position of message
Erasing 10485760 bytes in 4th position of message
Erasing 10485760 bytes in 5th position of message
Decoding message[1]
Decoding message[2]
Decoding message[4]
Decoding message[5]
Time to decode tor = 3152.0 msec (13.306802MB/s)
Decoded Succeeded
Time to encode tor = 1613.0 msec (6.500781MB/s)
Erasing 10485760 bytes in 0th position of message
Erasing 10485760 bytes in 3th position of message
Decoding message[0]
Decoding message[3]
Time to decode tor = 1304.0 msec (16.082455MB/s)
Decoded Succeeded
Time to encode tor = 1533.0 msec (6.840026MB/s)
Erasing 10485760 bytes in 5th position of message
Decoding message[5]
Time to decode tor = 753.0 msec (13.925312MB/s)
Decoded Succeeded
Time to encode tor = 1507.0 msec (6.958036MB/s)
Erasing 10485760 bytes in 0th position of message
Erasing 10485760 bytes in 1th position of message
Erasing 10485760 bytes in 2th position of message
Erasing 10485760 bytes in 3th position of message
Erasing 10485760 bytes in 4th position of message
Erasing 10485760 bytes in 5th position of message
Decoding message[0]
Decoding message[1]
Decoding message[2]
Decoding message[3]
Decoding message[4]
Decoding message[5]
Time to decode tor = 4452.0 msec (14.131752MB/s)
Decoded Succeeded
Time to encode tor = 1771.0 msec (5.920813MB/s)
Erasing 10485760 bytes in 0th position of message
Erasing 10485760 bytes in 2th position of message
Erasing 10485760 bytes in 4th position of message
Decoding message[0]
Decoding message[2]
Decoding message[4]
Time to decode tor = 2362.0 msec (13.318069MB/s)
Decoded Succeeded
Time to encode tor = 1536.0 msec (6.826667MB/s)
Erasing 10485760 bytes in 0th position of message
Erasing 10485760 bytes in 1th position of message
Erasing 10485760 bytes in 2th position of message
Erasing 10485760 bytes in 3th position of message
Erasing 10485760 bytes in 4th position of message
Erasing 10485760 bytes in 5th position of message
Decoding message[0]
Decoding message[1]
Decoding message[2]
Decoding message[3]
Decoding message[4]
Decoding message[5]
Time to decode tor = 4562.0 msec (13.791004MB/s)
Decoded Succeeded
Time to encode tor = 1775.0 msec (5.90747MB/s)
Erasing 10485760 bytes in 0th position of message
Erasing 10485760 bytes in 4th position of message
Erasing 10485760 bytes in 5th position of message
Decoding message[0]
Decoding message[4]
Decoding message[5]
Time to decode tor = 2113.0 msec (14.887496MB/s)
Decoded Succeeded
Time to encode tor = 1620.0 msec (6.4726915MB/s)
Erasing 10485760 bytes in 0th position of message
Erasing 10485760 bytes in 1th position of message
Erasing 10485760 bytes in 2th position of message
Erasing 10485760 bytes in 5th position of message
Decoding message[0]
Decoding message[1]
Decoding message[2]
Decoding message[5]
Time to decode tor = 2820.0 msec (14.873419MB/s)
Decoded Succeeded
Time to encode tor = 1492.0 msec (7.0279894MB/s)
Erasing 10485760 bytes in 0th position of message
Erasing 10485760 bytes in 1th position of message
Erasing 10485760 bytes in 2th position of message
Erasing 10485760 bytes in 3th position of message
Erasing 10485760 bytes in 4th position of message
Erasing 10485760 bytes in 5th position of message
Decoding message[0]
Decoding message[1]
Decoding message[2]
Decoding message[3]
Decoding message[4]
Decoding message[5]
Time to decode tor = 5399.0 msec (11.653003MB/s)
Decoded Succeeded
Time to encode tor = 1740.0 msec (6.026299MB/s)
Erasing 10485760 bytes in 1th position of message
Decoding message[1]
Time to decode tor = 932.0 msec (11.250815MB/s)
Decoded Succeeded
Time to encode tor = 1794.0 msec (5.8449054MB/s)
Erasing 10485760 bytes in 1th position of message
Erasing 10485760 bytes in 4th position of message
Erasing 10485760 bytes in 5th position of message
Decoding message[1]
Decoding message[4]
Decoding message[5]
Time to decode tor = 2608.0 msec (12.06184MB/s)
Decoded Succeeded
Time to encode tor = 1735.0 msec (6.043666MB/s)
Erasing 10485760 bytes in 0th position of message
Erasing 10485760 bytes in 1th position of message
Erasing 10485760 bytes in 2th position of message
Erasing 10485760 bytes in 3th position of message
Erasing 10485760 bytes in 4th position of message
Erasing 10485760 bytes in 5th position of message
Decoding message[0]
Decoding message[1]
Decoding message[2]
Decoding message[3]
Decoding message[4]
Decoding message[5]
Time to decode tor = 4714.0 msec (13.346322MB/s)
Decoded Succeeded
Time to encode tor = 1803.0 msec (5.815729MB/s)
Erasing 10485760 bytes in 2th position of message
Erasing 10485760 bytes in 5th position of message
Decoding message[2]
Decoding message[5]
Time to decode tor = 1634.0 msec (12.834468MB/s)
Decoded Succeeded
Time to encode tor = 1875.0 msec (5.5924053MB/s)
Erasing 10485760 bytes in 0th position of message
Erasing 10485760 bytes in 1th position of message
Erasing 10485760 bytes in 2th position of message
Erasing 10485760 bytes in 3th position of message
Erasing 10485760 bytes in 4th position of message
Erasing 10485760 bytes in 5th position of message
Decoding message[0]
Decoding message[1]
Decoding message[2]
Decoding message[3]
Decoding message[4]
Decoding message[5]
Time to decode tor = 4638.0 msec (13.56502MB/s)
Decoded Succeeded
Time to encode tor = 1707.0 msec (6.1428003MB/s)
Erasing 10485760 bytes in 3th position of message
Decoding message[3]
Time to decode tor = 842.0 msec (12.453397MB/s)
Decoded Succeeded
Time to encode tor = 1671.0 msec (6.275141MB/s)
Erasing 10485760 bytes in 0th position of message
Erasing 10485760 bytes in 1th position of message
Erasing 10485760 bytes in 2th position of message
Erasing 10485760 bytes in 3th position of message
Erasing 10485760 bytes in 4th position of message
Erasing 10485760 bytes in 5th position of message
Decoding message[0]
Decoding message[1]
Decoding message[2]
Decoding message[3]
Decoding message[4]
Decoding message[5]
Time to decode tor = 4893.0 msec (12.858075MB/s)
Decoded Succeeded
Time to encode tor = 1620.0 msec (6.4726915MB/s)
Erasing 10485760 bytes in 3th position of message
Erasing 10485760 bytes in 4th position of message
Decoding message[3]
Decoding message[4]
Time to decode tor = 1521.0 msec (13.787982MB/s)
Decoded Succeeded

Testing TOR(8,4)
Time to encode tor = 857.0 msec (12.235426MB/s)
Erasing 10485760 bytes in 0th position of message
Decoding message[0]
Time to decode tor = 582.0 msec (18.01677MB/s)
Decoded Succeeded
Time to encode tor = 863.0 msec (12.150359MB/s)
Erasing 10485760 bytes in 1th position of message
Decoding message[1]
Time to decode tor = 857.0 msec (12.235426MB/s)
Decoded Succeeded
Time to encode tor = 857.0 msec (12.235426MB/s)
Erasing 10485760 bytes in 0th position of message
Erasing 10485760 bytes in 1th position of message
Erasing 10485760 bytes in 2th position of message
Decoding message[0]
Decoding message[1]
Decoding message[2]
Time to decode tor = 2240.0 msec (14.043428MB/s)
Decoded Succeeded
Time to encode tor = 834.0 msec (12.572854MB/s)
Erasing 10485760 bytes in 0th position of message
Erasing 10485760 bytes in 1th position of message
Erasing 10485760 bytes in 2th position of message
Decoding message[0]
Decoding message[1]
Decoding message[2]
Time to decode tor = 2452.0 msec (12.829233MB/s)
Decoded Succeeded
Time to encode tor = 919.0 msec (11.409967MB/s)
Erasing 10485760 bytes in 0th position of message
Erasing 10485760 bytes in 1th position of message
Erasing 10485760 bytes in 2th position of message
Decoding message[0]
Decoding message[1]
Decoding message[2]
Time to decode tor = 2016.0 msec (15.603809MB/s)
Decoded Succeeded
Time to encode tor = 1254.0 msec (8.36185MB/s)
Erasing 10485760 bytes in 0th position of message
Erasing 10485760 bytes in 1th position of message
Erasing 10485760 bytes in 2th position of message
Decoding message[0]
Decoding message[1]
Decoding message[2]
Time to decode tor = 2094.0 msec (15.022579MB/s)
Decoded Succeeded
Time to encode tor = 1178.0 msec (8.901324MB/s)
Erasing 10485760 bytes in 0th position of message
Erasing 10485760 bytes in 1th position of message
Erasing 10485760 bytes in 2th position of message
Decoding message[0]
Decoding message[1]
Decoding message[2]
Time to decode tor = 2102.0 msec (14.9654045MB/s)
Decoded Succeeded
Time to encode tor = 1180.0 msec (8.886237MB/s)
Erasing 10485760 bytes in 0th position of message
Erasing 10485760 bytes in 1th position of message
Erasing 10485760 bytes in 2th position of message
Decoding message[0]
Decoding message[1]
Decoding message[2]
Time to decode tor = 2129.0 msec (14.775613MB/s)
Decoded Succeeded
Time to encode tor = 1212.0 msec (8.651617MB/s)
Erasing 10485760 bytes in 0th position of message
Erasing 10485760 bytes in 1th position of message
Erasing 10485760 bytes in 2th position of message
Decoding message[0]
Decoding message[1]
Decoding message[2]
Time to decode tor = 2097.0 msec (15.001087MB/s)
Decoded Succeeded
Time to encode tor = 1148.0 msec (9.133937MB/s)
Erasing 10485760 bytes in 0th position of message
Erasing 10485760 bytes in 1th position of message
Erasing 10485760 bytes in 2th position of message
Decoding message[0]
Decoding message[1]
Decoding message[2]
Time to decode tor = 2065.0 msec (15.23355MB/s)
Decoded Succeeded
Time to encode tor = 1128.0 msec (9.295887MB/s)
Erasing 10485760 bytes in 1th position of message
Decoding message[1]
Time to decode tor = 782.0 msec (13.4089MB/s)
Decoded Succeeded
Time to encode tor = 1123.0 msec (9.3372755MB/s)
Erasing 10485760 bytes in 0th position of message
Erasing 10485760 bytes in 1th position of message
Decoding message[0]
Decoding message[1]
Time to decode tor = 1306.0 msec (16.057825MB/s)
Decoded Succeeded
Time to encode tor = 1145.0 msec (9.157869MB/s)
Erasing 10485760 bytes in 0th position of message
Erasing 10485760 bytes in 1th position of message
Decoding message[0]
Decoding message[1]
Time to decode tor = 1320.0 msec (15.887515MB/s)
Decoded Succeeded
Time to encode tor = 1122.0 msec (9.345597MB/s)
Erasing 10485760 bytes in 0th position of message
Erasing 10485760 bytes in 1th position of message
Erasing 10485760 bytes in 2th position of message
Decoding message[0]
Decoding message[1]
Decoding message[2]
Time to decode tor = 2071.0 msec (15.189416MB/s)
Decoded Succeeded
Time to encode tor = 1194.0 msec (8.782043MB/s)
Erasing 10485760 bytes in 0th position of message
Erasing 10485760 bytes in 1th position of message
Erasing 10485760 bytes in 2th position of message
Decoding message[0]
Decoding message[1]
Decoding message[2]
Time to decode tor = 2092.0 msec (15.036941MB/s)
Decoded Succeeded
Time to encode tor = 1150.0 msec (9.1180525MB/s)
Erasing 10485760 bytes in 1th position of message
Erasing 10485760 bytes in 2th position of message
Decoding message[1]
Decoding message[2]
Time to decode tor = 1510.0 msec (13.888424MB/s)
Decoded Succeeded
Time to encode tor = 1150.0 msec (9.1180525MB/s)
Erasing 10485760 bytes in 0th position of message
Erasing 10485760 bytes in 1th position of message
Decoding message[0]
Decoding message[1]
Time to decode tor = 1367.0 msec (15.341273MB/s)
Decoded Succeeded
Time to encode tor = 1158.0 msec (9.05506MB/s)
Erasing 10485760 bytes in 1th position of message
Decoding message[1]
Time to decode tor = 767.0 msec (13.671134MB/s)
Decoded Succeeded
Time to encode tor = 1139.0 msec (9.206111MB/s)
Erasing 10485760 bytes in 0th position of message
Erasing 10485760 bytes in 2th position of message
Decoding message[0]
Decoding message[2]
Time to decode tor = 1303.0 msec (16.094797MB/s)
Decoded Succeeded
Time to encode tor = 1128.0 msec (9.295887MB/s)
Erasing 10485760 bytes in 0th position of message
Erasing 10485760 bytes in 1th position of message
Erasing 10485760 bytes in 2th position of message
Decoding message[0]
Decoding message[1]
Decoding message[2]
Time to decode tor = 2098.0 msec (14.9939375MB/s)
Decoded Succeeded

Testing TOR(12,6)
Time to encode tor = 1650.0 msec (6.355006MB/s)
Erasing 10485760 bytes in 2th position of message
Decoding message[2]
Time to decode tor = 782.0 msec (13.4089MB/s)
Decoded Succeeded
Time to encode tor = 1304.0 msec (8.041227MB/s)
Erasing 10485760 bytes in 0th position of message
Erasing 10485760 bytes in 1th position of message
Erasing 10485760 bytes in 2th position of message
Erasing 10485760 bytes in 3th position of message
Erasing 10485760 bytes in 4th position of message
Decoding message[0]
Decoding message[1]
Decoding message[2]
Decoding message[3]
Decoding message[4]
Time to decode tor = 3675.0 msec (14.26634MB/s)
Decoded Succeeded
Time to encode tor = 1353.0 msec (7.7500076MB/s)
Erasing 10485760 bytes in 0th position of message
Erasing 10485760 bytes in 1th position of message
Erasing 10485760 bytes in 2th position of message
Erasing 10485760 bytes in 3th position of message
Erasing 10485760 bytes in 4th position of message
Decoding message[0]
Decoding message[1]
Decoding message[2]
Decoding message[3]
Decoding message[4]
Time to decode tor = 3587.0 msec (14.616337MB/s)
Decoded Succeeded
Time to encode tor = 1372.0 msec (7.642682MB/s)
Erasing 10485760 bytes in 4th position of message
Decoding message[4]
Time to decode tor = 819.0 msec (12.803125MB/s)
Decoded Succeeded
Time to encode tor = 1335.0 msec (7.8545017MB/s)
Erasing 10485760 bytes in 3th position of message
Decoding message[3]
Time to decode tor = 785.0 msec (13.3576565MB/s)
Decoded Succeeded
Time to encode tor = 1327.0 msec (7.901854MB/s)
Erasing 10485760 bytes in 2th position of message
Decoding message[2]
Time to decode tor = 773.0 msec (13.56502MB/s)
Decoded Succeeded
Time to encode tor = 1367.0 msec (7.6706367MB/s)
Erasing 10485760 bytes in 0th position of message
Erasing 10485760 bytes in 1th position of message
Erasing 10485760 bytes in 2th position of message
Erasing 10485760 bytes in 3th position of message
Erasing 10485760 bytes in 4th position of message
Decoding message[0]
Decoding message[1]
Decoding message[2]
Decoding message[3]
Decoding message[4]
Time to decode tor = 3737.0 msec (14.02965MB/s)
Decoded Succeeded
Time to encode tor = 1350.0 msec (7.7672296MB/s)
Erasing 10485760 bytes in 0th position of message
Erasing 10485760 bytes in 1th position of message
Erasing 10485760 bytes in 2th position of message
Erasing 10485760 bytes in 3th position of message
Erasing 10485760 bytes in 4th position of message
Decoding message[0]
Decoding message[1]
Decoding message[2]
Decoding message[3]
Decoding message[4]
Time to decode tor = 3766.0 msec (13.921615MB/s)
Decoded Succeeded
Time to encode tor = 1322.0 msec (7.93174MB/s)
Erasing 10485760 bytes in 0th position of message
Erasing 10485760 bytes in 1th position of message
Erasing 10485760 bytes in 2th position of message
Erasing 10485760 bytes in 3th position of message
Erasing 10485760 bytes in 4th position of message
Decoding message[0]
Decoding message[1]
Decoding message[2]
Decoding message[3]
Decoding message[4]
Time to decode tor = 3620.0 msec (14.483094MB/s)
Decoded Succeeded
Time to encode tor = 1357.0 msec (7.727163MB/s)
Erasing 10485760 bytes in 0th position of message
Erasing 10485760 bytes in 1th position of message
Erasing 10485760 bytes in 2th position of message
Erasing 10485760 bytes in 3th position of message
Erasing 10485760 bytes in 4th position of message
Decoding message[0]
Decoding message[1]
Decoding message[2]
Decoding message[3]
Decoding message[4]
Time to decode tor = 3733.0 msec (14.0446825MB/s)
Decoded Succeeded
Time to encode tor = 1415.0 msec (7.410431MB/s)
Erasing 10485760 bytes in 1th position of message
Erasing 10485760 bytes in 4th position of message
Decoding message[1]
Decoding message[4]
Time to decode tor = 1514.0 msec (13.85173MB/s)
Decoded Succeeded
Time to encode tor = 1378.0 msec (7.609405MB/s)
Erasing 10485760 bytes in 0th position of message
Erasing 10485760 bytes in 1th position of message
Erasing 10485760 bytes in 2th position of message
Erasing 10485760 bytes in 3th position of message
Erasing 10485760 bytes in 4th position of message
Decoding message[0]
Decoding message[1]
Decoding message[2]
Decoding message[3]
Decoding message[4]
Time to decode tor = 3613.0 msec (14.511154MB/s)
Decoded Succeeded
Time to encode tor = 1395.0 msec (7.516674MB/s)
Erasing 10485760 bytes in 0th position of message
Erasing 10485760 bytes in 1th position of message
Erasing 10485760 bytes in 2th position of message
Erasing 10485760 bytes in 3th position of message
Erasing 10485760 bytes in 4th position of message
Decoding message[0]
Decoding message[1]
Decoding message[2]
Decoding message[3]
Decoding message[4]
Time to decode tor = 3758.0 msec (13.951251MB/s)
Decoded Succeeded
Time to encode tor = 1322.0 msec (7.93174MB/s)
Erasing 10485760 bytes in 0th position of message
Erasing 10485760 bytes in 4th position of message
Decoding message[0]
Decoding message[4]
Time to decode tor = 1322.0 msec (15.86348MB/s)
Decoded Succeeded
Time to encode tor = 1349.0 msec (7.7729874MB/s)
Erasing 10485760 bytes in 0th position of message
Erasing 10485760 bytes in 1th position of message
Erasing 10485760 bytes in 2th position of message
Erasing 10485760 bytes in 3th position of message
Erasing 10485760 bytes in 4th position of message
Decoding message[0]
Decoding message[1]
Decoding message[2]
Decoding message[3]
Decoding message[4]
Time to decode tor = 3630.0 msec (14.443195MB/s)
Decoded Succeeded
Time to encode tor = 1385.0 msec (7.5709457MB/s)
Erasing 10485760 bytes in 0th position of message
Erasing 10485760 bytes in 1th position of message
Erasing 10485760 bytes in 2th position of message
Erasing 10485760 bytes in 3th position of message
Erasing 10485760 bytes in 4th position of message
Decoding message[0]
Decoding message[1]
Decoding message[2]
Decoding message[3]
Decoding message[4]
Time to decode tor = 3679.0 msec (14.250829MB/s)
Decoded Succeeded
Time to encode tor = 1350.0 msec (7.7672296MB/s)
Erasing 10485760 bytes in 1th position of message
Erasing 10485760 bytes in 4th position of message
Decoding message[1]
Decoding message[4]
Time to decode tor = 1540.0 msec (13.61787MB/s)
Decoded Succeeded
Time to encode tor = 1295.0 msec (8.097112MB/s)
Erasing 10485760 bytes in 0th position of message
Decoding message[0]
Time to decode tor = 559.0 msec (18.758068MB/s)
Decoded Succeeded
Time to encode tor = 1375.0 msec (7.626007MB/s)
Erasing 10485760 bytes in 0th position of message
Erasing 10485760 bytes in 1th position of message
Erasing 10485760 bytes in 2th position of message
Erasing 10485760 bytes in 3th position of message
Erasing 10485760 bytes in 4th position of message
Decoding message[0]
Decoding message[1]
Decoding message[2]
Decoding message[3]
Decoding message[4]
Time to decode tor = 3700.0 msec (14.169946MB/s)
Decoded Succeeded
Time to encode tor = 1332.0 msec (7.8721924MB/s)
Erasing 10485760 bytes in 0th position of message
Decoding message[0]
Time to decode tor = 560.0 msec (18.724571MB/s)
Decoded Succeeded

Testing TOR(10,5)
Time to encode tor = 1153.0 msec (9.094328MB/s)
Erasing 10485760 bytes in 0th position of message
Erasing 10485760 bytes in 1th position of message
Erasing 10485760 bytes in 3th position of message
Decoding message[0]
Decoding message[1]
Decoding message[3]
Time to decode tor = 2090.0 msec (15.051331MB/s)
Decoded Succeeded
Time to encode tor = 1167.0 msec (8.985227MB/s)
Erasing 10485760 bytes in 0th position of message
Erasing 10485760 bytes in 1th position of message
Erasing 10485760 bytes in 3th position of message
Decoding message[0]
Decoding message[1]
Decoding message[3]
Time to decode tor = 2115.0 msec (14.873419MB/s)
Decoded Succeeded
Time to encode tor = 1206.0 msec (8.69466MB/s)
Erasing 10485760 bytes in 1th position of message
Decoding message[1]
Time to decode tor = 795.0 msec (13.189635MB/s)
Decoded Succeeded
Time to encode tor = 1146.0 msec (9.149878MB/s)
Erasing 10485760 bytes in 0th position of message
Erasing 10485760 bytes in 2th position of message
Erasing 10485760 bytes in 3th position of message
Decoding message[0]
Decoding message[2]
Decoding message[3]
Time to decode tor = 2119.0 msec (14.845342MB/s)
Decoded Succeeded
Time to encode tor = 1197.0 msec (8.760034MB/s)
Erasing 10485760 bytes in 1th position of message
Erasing 10485760 bytes in 3th position of message
Decoding message[1]
Decoding message[3]
Time to decode tor = 1543.0 msec (13.591393MB/s)
Decoded Succeeded
Time to encode tor = 1130.0 msec (9.279433MB/s)
Erasing 10485760 bytes in 1th position of message
Erasing 10485760 bytes in 2th position of message
Erasing 10485760 bytes in 3th position of message
Decoding message[1]
Decoding message[2]
Decoding message[3]
Time to decode tor = 2296.0 msec (13.700906MB/s)
Decoded Succeeded
Time to encode tor = 1257.0 msec (8.341893MB/s)
Erasing 10485760 bytes in 0th position of message
Erasing 10485760 bytes in 1th position of message
Erasing 10485760 bytes in 2th position of message
Erasing 10485760 bytes in 3th position of message
Decoding message[0]
Decoding message[1]
Decoding message[2]
Decoding message[3]
Time to decode tor = 3728.0 msec (11.250815MB/s)
Decoded Succeeded
Time to encode tor = 1128.0 msec (9.295887MB/s)
Erasing 10485760 bytes in 2th position of message
Decoding message[2]
Time to decode tor = 750.0 msec (13.981013MB/s)
Decoded Succeeded
Time to encode tor = 1295.0 msec (8.097112MB/s)
Erasing 10485760 bytes in 0th position of message
Erasing 10485760 bytes in 1th position of message
Erasing 10485760 bytes in 2th position of message
Erasing 10485760 bytes in 3th position of message
Decoding message[0]
Decoding message[1]
Decoding message[2]
Decoding message[3]
Time to decode tor = 3247.0 msec (12.917475MB/s)
Decoded Succeeded
Time to encode tor = 1145.0 msec (9.157869MB/s)
Erasing 10485760 bytes in 0th position of message
Erasing 10485760 bytes in 2th position of message
Erasing 10485760 bytes in 3th position of message
Decoding message[0]
Decoding message[2]
Decoding message[3]
Time to decode tor = 2102.0 msec (14.9654045MB/s)
Decoded Succeeded
Time to encode tor = 1210.0 msec (8.665917MB/s)
Erasing 10485760 bytes in 0th position of message
Erasing 10485760 bytes in 1th position of message
Erasing 10485760 bytes in 2th position of message
Erasing 10485760 bytes in 3th position of message
Decoding message[0]
Decoding message[1]
Decoding message[2]
Decoding message[3]
Time to decode tor = 3234.0 msec (12.9694MB/s)
Decoded Succeeded
Time to encode tor = 1144.0 msec (9.1658745MB/s)
Erasing 10485760 bytes in 0th position of message
Erasing 10485760 bytes in 1th position of message
Erasing 10485760 bytes in 2th position of message
Erasing 10485760 bytes in 3th position of message
Decoding message[0]
Decoding message[1]
Decoding message[2]
Decoding message[3]
Time to decode tor = 2834.0 msec (14.799944MB/s)
Decoded Succeeded
Time to encode tor = 1271.0 msec (8.250008MB/s)
Erasing 10485760 bytes in 0th position of message
Decoding message[0]
Time to decode tor = 673.0 msec (15.580624MB/s)
Decoded Succeeded
Time to encode tor = 1128.0 msec (9.295887MB/s)
Erasing 10485760 bytes in 0th position of message
Erasing 10485760 bytes in 1th position of message
Erasing 10485760 bytes in 2th position of message
Erasing 10485760 bytes in 3th position of message
Decoding message[0]
Decoding message[1]
Decoding message[2]
Decoding message[3]
Time to decode tor = 2815.0 msec (14.899837MB/s)
Decoded Succeeded
Time to encode tor = 1349.0 msec (7.7729874MB/s)
Erasing 10485760 bytes in 0th position of message
Erasing 10485760 bytes in 1th position of message
Erasing 10485760 bytes in 2th position of message
Erasing 10485760 bytes in 3th position of message
Decoding message[0]
Decoding message[1]
Decoding message[2]
Decoding message[3]
Time to decode tor = 3179.0 msec (13.193784MB/s)
Decoded Succeeded
Time to encode tor = 1181.0 msec (8.878713MB/s)
Erasing 10485760 bytes in 0th position of message
Erasing 10485760 bytes in 1th position of message
Erasing 10485760 bytes in 2th position of message
Erasing 10485760 bytes in 3th position of message
Decoding message[0]
Decoding message[1]
Decoding message[2]
Decoding message[3]
Time to decode tor = 2882.0 msec (14.553449MB/s)
Decoded Succeeded
Time to encode tor = 1296.0 msec (8.090864MB/s)
Erasing 10485760 bytes in 0th position of message
Erasing 10485760 bytes in 1th position of message
Erasing 10485760 bytes in 2th position of message
Erasing 10485760 bytes in 3th position of message
Decoding message[0]
Decoding message[1]
Decoding message[2]
Decoding message[3]
Time to decode tor = 3215.0 msec (13.046046MB/s)
Decoded Succeeded
Time to encode tor = 1276.0 msec (8.21768MB/s)
Erasing 10485760 bytes in 1th position of message
Erasing 10485760 bytes in 3th position of message
Decoding message[1]
Decoding message[3]
Time to decode tor = 1550.0 msec (13.530013MB/s)
Decoded Succeeded
Time to encode tor = 1409.0 msec (7.441987MB/s)
Erasing 10485760 bytes in 0th position of message
Erasing 10485760 bytes in 1th position of message
Erasing 10485760 bytes in 2th position of message
Erasing 10485760 bytes in 3th position of message
Decoding message[0]
Decoding message[1]
Decoding message[2]
Decoding message[3]
Time to decode tor = 3308.0 msec (12.679275MB/s)
Decoded Succeeded
Time to encode tor = 1135.0 msec (9.238555MB/s)
Erasing 10485760 bytes in 1th position of message
Erasing 10485760 bytes in 2th position of message
Decoding message[1]
Decoding message[2]
Time to decode tor = 1601.0 msec (13.099013MB/s)
Decoded Succeeded

Testing TOR(10,5)
Time to encode tor = 1197.0 msec (8.760034MB/s)
Erasing 10485760 bytes in 3th position of message
Decoding message[3]
Time to decode tor = 813.0 msec (12.897614MB/s)
Decoded Succeeded
Time to encode tor = 1124.0 msec (9.328968MB/s)
Erasing 10485760 bytes in 3th position of message
Decoding message[3]
Time to decode tor = 756.0 msec (13.870053MB/s)
Decoded Succeeded
Time to encode tor = 1231.0 msec (8.518083MB/s)
Erasing 10485760 bytes in 0th position of message
Erasing 10485760 bytes in 1th position of message
Erasing 10485760 bytes in 3th position of message
Decoding message[0]
Decoding message[1]
Decoding message[3]
Time to decode tor = 2190.0 msec (14.364055MB/s)
Decoded Succeeded
Time to encode tor = 1135.0 msec (9.238555MB/s)
Erasing 10485760 bytes in 0th position of message
Erasing 10485760 bytes in 1th position of message
Erasing 10485760 bytes in 2th position of message
Erasing 10485760 bytes in 3th position of message
Decoding message[0]
Decoding message[1]
Decoding message[2]
Decoding message[3]
Time to decode tor = 2895.0 msec (14.488097MB/s)
Decoded Succeeded
Time to encode tor = 1283.0 msec (8.172845MB/s)
Erasing 10485760 bytes in 0th position of message
Erasing 10485760 bytes in 2th position of message
Decoding message[0]
Decoding message[2]
Time to decode tor = 1677.0 msec (12.505379MB/s)
Decoded Succeeded
Time to encode tor = 1141.0 msec (9.189974MB/s)
Erasing 10485760 bytes in 2th position of message
Erasing 10485760 bytes in 3th position of message
Decoding message[2]
Decoding message[3]
Time to decode tor = 1500.0 msec (13.981013MB/s)
Decoded Succeeded
Time to encode tor = 1264.0 msec (8.295696MB/s)
Erasing 10485760 bytes in 2th position of message
Decoding message[2]
Time to decode tor = 1049.0 msec (9.995958MB/s)
Decoded Succeeded
Time to encode tor = 1180.0 msec (8.886237MB/s)
Erasing 10485760 bytes in 0th position of message
Erasing 10485760 bytes in 2th position of message
Decoding message[0]
Decoding message[2]
Time to decode tor = 1328.0 msec (15.791807MB/s)
Decoded Succeeded
Time to encode tor = 1210.0 msec (8.665917MB/s)
Erasing 10485760 bytes in 1th position of message
Decoding message[1]
Time to decode tor = 802.0 msec (13.074513MB/s)
Decoded Succeeded
Time to encode tor = 1146.0 msec (9.149878MB/s)
Erasing 10485760 bytes in 2th position of message
Erasing 10485760 bytes in 3th position of message
Decoding message[2]
Decoding message[3]
Time to decode tor = 1558.0 msec (13.460539MB/s)
Decoded Succeeded
Time to encode tor = 1251.0 msec (8.381903MB/s)
Erasing 10485760 bytes in 0th position of message
Erasing 10485760 bytes in 1th position of message
Erasing 10485760 bytes in 3th position of message
Decoding message[0]
Decoding message[1]
Decoding message[3]
Time to decode tor = 2182.0 msec (14.4167185MB/s)
Decoded Succeeded
Time to encode tor = 1116.0 msec (9.395843MB/s)
Erasing 10485760 bytes in 0th position of message
Erasing 10485760 bytes in 1th position of message
Erasing 10485760 bytes in 2th position of message
Decoding message[0]
Decoding message[1]
Decoding message[2]
Time to decode tor = 2100.0 msec (14.979657MB/s)
Decoded Succeeded
Time to encode tor = 1239.0 msec (8.463083MB/s)
Erasing 10485760 bytes in 0th position of message
Erasing 10485760 bytes in 1th position of message
Erasing 10485760 bytes in 2th position of message
Decoding message[0]
Decoding message[1]
Decoding message[2]
Time to decode tor = 2439.0 msec (12.897614MB/s)
Decoded Succeeded
Time to encode tor = 1110.0 msec (9.4466305MB/s)
Erasing 10485760 bytes in 2th position of message
Erasing 10485760 bytes in 3th position of message
Decoding message[2]
Decoding message[3]
Time to decode tor = 1519.0 msec (13.806135MB/s)
Decoded Succeeded
Time to encode tor = 1208.0 msec (8.680264MB/s)
Erasing 10485760 bytes in 0th position of message
Erasing 10485760 bytes in 1th position of message
Decoding message[0]
Decoding message[1]
Time to decode tor = 1403.0 msec (14.947626MB/s)
Decoded Succeeded
Time to encode tor = 1153.0 msec (9.094328MB/s)
Erasing 10485760 bytes in 0th position of message
Erasing 10485760 bytes in 1th position of message
Erasing 10485760 bytes in 2th position of message
Erasing 10485760 bytes in 3th position of message
Decoding message[0]
Decoding message[1]
Decoding message[2]
Decoding message[3]
Time to decode tor = 2791.0 msec (15.027962MB/s)
Decoded Succeeded
Time to encode tor = 1276.0 msec (8.21768MB/s)
Erasing 10485760 bytes in 0th position of message
Erasing 10485760 bytes in 1th position of message
Erasing 10485760 bytes in 3th position of message
Decoding message[0]
Decoding message[1]
Decoding message[3]
Time to decode tor = 2176.0 msec (14.4564705MB/s)
Decoded Succeeded
Time to encode tor = 1148.0 msec (9.133937MB/s)
Erasing 10485760 bytes in 0th position of message
Erasing 10485760 bytes in 1th position of message
Erasing 10485760 bytes in 3th position of message
Decoding message[0]
Decoding message[1]
Decoding message[3]
Time to decode tor = 2085.0 msec (15.087424MB/s)
Decoded Succeeded
Time to encode tor = 1198.0 msec (8.752721MB/s)
Erasing 10485760 bytes in 1th position of message
Erasing 10485760 bytes in 2th position of message
Erasing 10485760 bytes in 3th position of message
Decoding message[1]
Decoding message[2]
Decoding message[3]
Time to decode tor = 2590.0 msec (12.145668MB/s)
Decoded Succeeded
Time to encode tor = 1315.0 msec (7.973962MB/s)
Erasing 10485760 bytes in 1th position of message
Erasing 10485760 bytes in 2th position of message
Erasing 10485760 bytes in 3th position of message
Decoding message[1]
Decoding message[2]
Decoding message[3]
Time to decode tor = 2316.0 msec (13.582591MB/s)
Decoded Succeeded
Test successfully.
