Buildfile: /home/celina/unicamp/plano-trabalho-mestrado/defesa/testes/java/build.xml

run:
     [java] Test Erasure Codes: XOR and TOR
     [java] Time to encode xor = 948.0 msec (11.060928MB/s)
     [java] Time to decode xor = 1045.0 msec (10.03422MB/s)
     [java] Decoded Succeeded
     [java] Testing TOR(20,10)
     [java] Time to encode tor = 1327.0 msec (7.901854MB/s)
     [java] ErasedLocations ok
     [java] Exception in thread "main" java.lang.OutOfMemoryError: Java heap space
     [java] 	at raid.TestErasureCodes.testTorPerformance(Unknown Source)
     [java] 	at raid.TestErasureCodes.main(Unknown Source)
     [java] Java Result: 1

BUILD SUCCESSFUL
Total time: 16 seconds
