Buildfile: /home/celina/unicamp/plano-trabalho-mestrado/defesa/testes/java/build.xml

run:
     [java] Test Erasure Codes: XOR and TOR
     [java] Time to encode xor = 1002.0 msec (10.46483MB/s)
     [java] Time to decode xor = 958.0 msec (10.94547MB/s)
     [java] Decoded Succeeded
     [java] Testing TOR(10,5)
     [java] Time to encode tor = 700.0 msec (14.979657MB/s)
     [java] Erasing 10485760 bytes in 3a position of message
     [java] Time to decode tor = 77.0 msec (136.1787MB/s)
     [java] Decoded Succeeded
     [java] Time to encode tor = 754.0 msec (13.906843MB/s)
     [java] Erasing 10485760 bytes in 0a position of message
     [java] Time to decode tor = 95.0 msec (110.37642MB/s)
     [java] Decoded Succeeded
     [java] Time to encode tor = 550.0 msec (19.065018MB/s)
     [java] Erasing 10485760 bytes in 0a position of message
     [java] Time to decode tor = 81.0 msec (129.45383MB/s)
     [java] Decoded Succeeded
     [java] Time to encode tor = 749.0 msec (13.99968MB/s)
     [java] Erasing 10485760 bytes in 2a position of message
     [java] Time to decode tor = 79.0 msec (132.73114MB/s)
     [java] Decoded Succeeded
     [java] Time to encode tor = 722.0 msec (14.523213MB/s)
     [java] Erasing 10485760 bytes in 4a position of message
     [java] Time to decode tor = 78.0 msec (134.43282MB/s)
     [java] Decoded Succeeded
     [java] Time to encode tor = 758.0 msec (13.833456MB/s)
     [java] Erasing 10485760 bytes in 4a position of message
     [java] Time to decode tor = 84.0 msec (124.830475MB/s)
     [java] Decoded Succeeded
     [java] Time to encode tor = 658.0 msec (15.935805MB/s)
     [java] Erasing 10485760 bytes in 3a position of message
     [java] Time to decode tor = 93.0 msec (112.75011MB/s)
     [java] Decoded Succeeded
     [java] Time to encode tor = 616.0 msec (17.022337MB/s)
     [java] Erasing 10485760 bytes in 4a position of message
     [java] Time to decode tor = 75.0 msec (139.81013MB/s)
     [java] Decoded Succeeded
     [java] Time to encode tor = 802.0 msec (13.074513MB/s)
     [java] Erasing 10485760 bytes in 0a position of message
     [java] Time to decode tor = 94.0 msec (111.55064MB/s)
     [java] Decoded Succeeded
     [java] Time to encode tor = 770.0 msec (13.61787MB/s)
     [java] Erasing 10485760 bytes in 2a position of message
     [java] Time to decode tor = 88.0 msec (119.156364MB/s)
     [java] Decoded Succeeded
     [java] Time to encode tor = 702.0 msec (14.93698MB/s)
     [java] Erasing 10485760 bytes in 1a position of message
     [java] Time to decode tor = 77.0 msec (136.1787MB/s)
     [java] Decoded Succeeded
     [java] Time to encode tor = 694.0 msec (15.109164MB/s)
     [java] Erasing 10485760 bytes in 2a position of message
     [java] Time to decode tor = 90.0 msec (116.508446MB/s)
     [java] Decoded Succeeded
     [java] Time to encode tor = 582.0 msec (18.01677MB/s)
     [java] Erasing 10485760 bytes in 3a position of message
     [java] Time to decode tor = 77.0 msec (136.1787MB/s)
     [java] Decoded Succeeded
     [java] Time to encode tor = 768.0 msec (13.653334MB/s)
     [java] Erasing 10485760 bytes in 4a position of message
     [java] Time to decode tor = 76.0 msec (137.97052MB/s)
     [java] Decoded Succeeded
     [java] Time to encode tor = 713.0 msec (14.706535MB/s)
     [java] Erasing 10485760 bytes in 2a position of message
     [java] Time to decode tor = 77.0 msec (136.1787MB/s)
     [java] Decoded Succeeded
     [java] Time to encode tor = 808.0 msec (12.977426MB/s)
     [java] Erasing 10485760 bytes in 1a position of message
     [java] Time to decode tor = 86.0 msec (121.927444MB/s)
     [java] Decoded Succeeded
     [java] Time to encode tor = 716.0 msec (14.644917MB/s)
     [java] Erasing 10485760 bytes in 3a position of message
     [java] Time to decode tor = 78.0 msec (134.43282MB/s)
     [java] Decoded Succeeded
     [java] Time to encode tor = 546.0 msec (19.204689MB/s)
     [java] Erasing 10485760 bytes in 0a position of message
     [java] Time to decode tor = 81.0 msec (129.45383MB/s)
     [java] Decoded Succeeded
     [java] Time to encode tor = 720.0 msec (14.563556MB/s)
     [java] Erasing 10485760 bytes in 4a position of message
     [java] Time to decode tor = 76.0 msec (137.97052MB/s)
     [java] Decoded Succeeded
     [java] Time to encode tor = 717.0 msec (14.624491MB/s)
     [java] Erasing 10485760 bytes in 3a position of message
     [java] Time to decode tor = 78.0 msec (134.43282MB/s)
     [java] Decoded Succeeded
     [java] Testing TOR(8,4)
     [java] Time to encode tor = 604.0 msec (17.360529MB/s)
     [java] Erasing 10485760 bytes in 0a position of message
     [java] Time to decode tor = 81.0 msec (129.45383MB/s)
     [java] Decoded Succeeded
     [java] Time to encode tor = 661.0 msec (15.86348MB/s)
     [java] Erasing 10485760 bytes in 3a position of message
     [java] Time to decode tor = 85.0 msec (123.361885MB/s)
     [java] Decoded Succeeded
     [java] Time to encode tor = 447.0 msec (23.458076MB/s)
     [java] Erasing 10485760 bytes in 2a position of message
     [java] Time to decode tor = 90.0 msec (116.508446MB/s)
     [java] Decoded Succeeded
     [java] Time to encode tor = 458.0 msec (22.894672MB/s)
     [java] Erasing 10485760 bytes in 0a position of message
     [java] Time to decode tor = 86.0 msec (121.927444MB/s)
     [java] Decoded Succeeded
     [java] Time to encode tor = 619.0 msec (16.939838MB/s)
     [java] Erasing 10485760 bytes in 3a position of message
     [java] Time to decode tor = 82.0 msec (127.87512MB/s)
     [java] Decoded Succeeded
     [java] Time to encode tor = 563.0 msec (18.624796MB/s)
     [java] Erasing 10485760 bytes in 2a position of message
     [java] Time to decode tor = 77.0 msec (136.1787MB/s)
     [java] Decoded Succeeded
     [java] Time to encode tor = 605.0 msec (17.331835MB/s)
     [java] Erasing 10485760 bytes in 1a position of message
     [java] Time to decode tor = 78.0 msec (134.43282MB/s)
     [java] Decoded Succeeded
     [java] Time to encode tor = 382.0 msec (27.449633MB/s)
     [java] Erasing 10485760 bytes in 1a position of message
     [java] Time to decode tor = 76.0 msec (137.97052MB/s)
     [java] Decoded Succeeded
     [java] Time to encode tor = 453.0 msec (23.147373MB/s)
     [java] Erasing 10485760 bytes in 3a position of message
     [java] Time to decode tor = 76.0 msec (137.97052MB/s)
     [java] Decoded Succeeded
     [java] Time to encode tor = 600.0 msec (17.476267MB/s)
     [java] Erasing 10485760 bytes in 0a position of message
     [java] Time to decode tor = 81.0 msec (129.45383MB/s)
     [java] Decoded Succeeded
     [java] Time to encode tor = 574.0 msec (18.267874MB/s)
     [java] Erasing 10485760 bytes in 3a position of message
     [java] Time to decode tor = 89.0 msec (117.81753MB/s)
     [java] Decoded Succeeded
     [java] Time to encode tor = 582.0 msec (18.01677MB/s)
     [java] Erasing 10485760 bytes in 2a position of message
     [java] Time to decode tor = 79.0 msec (132.73114MB/s)
     [java] Decoded Succeeded
     [java] Time to encode tor = 383.0 msec (27.377964MB/s)
     [java] Erasing 10485760 bytes in 1a position of message
     [java] Time to decode tor = 77.0 msec (136.1787MB/s)
     [java] Decoded Succeeded
     [java] Time to encode tor = 445.0 msec (23.563505MB/s)
     [java] Erasing 10485760 bytes in 0a position of message
     [java] Time to decode tor = 80.0 msec (131.072MB/s)
     [java] Decoded Succeeded
     [java] Time to encode tor = 578.0 msec (18.141453MB/s)
     [java] Erasing 10485760 bytes in 0a position of message
     [java] Time to decode tor = 81.0 msec (129.45383MB/s)
     [java] Decoded Succeeded
     [java] Time to encode tor = 596.0 msec (17.593557MB/s)
     [java] Erasing 10485760 bytes in 1a position of message
     [java] Time to decode tor = 78.0 msec (134.43282MB/s)
     [java] Decoded Succeeded
     [java] Time to encode tor = 596.0 msec (17.593557MB/s)
     [java] Erasing 10485760 bytes in 2a position of message
     [java] Time to decode tor = 86.0 msec (121.927444MB/s)
     [java] Decoded Succeeded
     [java] Time to encode tor = 378.0 msec (27.740107MB/s)
     [java] Erasing 10485760 bytes in 2a position of message
     [java] Time to decode tor = 77.0 msec (136.1787MB/s)
     [java] Decoded Succeeded
     [java] Time to encode tor = 459.0 msec (22.844793MB/s)
     [java] Erasing 10485760 bytes in 2a position of message
     [java] Time to decode tor = 77.0 msec (136.1787MB/s)
     [java] Decoded Succeeded
     [java] Time to encode tor = 580.0 msec (18.078897MB/s)
     [java] Erasing 10485760 bytes in 3a position of message
     [java] Time to decode tor = 78.0 msec (134.43282MB/s)
     [java] Decoded Succeeded
     [java] Testing TOR(12,6)
     [java] Time to encode tor = 833.0 msec (12.587947MB/s)
     [java] Erasing 10485760 bytes in 0a position of message
     [java] Time to decode tor = 80.0 msec (131.072MB/s)
     [java] Decoded Succeeded
     [java] Time to encode tor = 688.0 msec (15.240931MB/s)
     [java] Erasing 10485760 bytes in 4a position of message
     [java] Time to decode tor = 88.0 msec (119.156364MB/s)
     [java] Decoded Succeeded
     [java] Time to encode tor = 760.0 msec (13.797052MB/s)
     [java] Erasing 10485760 bytes in 1a position of message
     [java] Time to decode tor = 111.0 msec (94.46631MB/s)
     [java] Decoded Succeeded
     [java] Time to encode tor = 745.0 msec (14.074845MB/s)
     [java] Erasing 10485760 bytes in 3a position of message
     [java] Time to decode tor = 79.0 msec (132.73114MB/s)
     [java] Decoded Succeeded
     [java] Time to encode tor = 703.0 msec (14.915732MB/s)
     [java] Erasing 10485760 bytes in 5a position of message
     [java] Time to decode tor = 94.0 msec (111.55064MB/s)
     [java] Decoded Succeeded
     [java] Time to encode tor = 691.0 msec (15.174761MB/s)
     [java] Erasing 10485760 bytes in 2a position of message
     [java] Time to decode tor = 76.0 msec (137.97052MB/s)
     [java] Decoded Succeeded
     [java] Time to encode tor = 702.0 msec (14.93698MB/s)
     [java] Erasing 10485760 bytes in 1a position of message
     [java] Time to decode tor = 96.0 msec (109.22667MB/s)
     [java] Decoded Succeeded
     [java] Time to encode tor = 679.0 msec (15.4429455MB/s)
     [java] Erasing 10485760 bytes in 0a position of message
     [java] Time to decode tor = 82.0 msec (127.87512MB/s)
     [java] Decoded Succeeded
     [java] Time to encode tor = 843.0 msec (12.438624MB/s)
     [java] Erasing 10485760 bytes in 3a position of message
     [java] Time to decode tor = 217.0 msec (48.321476MB/s)
     [java] Decoded Succeeded
     [java] Time to encode tor = 1565.0 msec (6.700166MB/s)
     [java] Erasing 10485760 bytes in 2a position of message
     [java] Time to decode tor = 213.0 msec (49.22892MB/s)
     [java] Decoded Succeeded
     [java] Time to encode tor = 1479.0 msec (7.089763MB/s)
     [java] Erasing 10485760 bytes in 3a position of message
     [java] Time to decode tor = 150.0 msec (69.90507MB/s)
     [java] Decoded Succeeded
     [java] Time to encode tor = 1396.0 msec (7.5112896MB/s)
     [java] Erasing 10485760 bytes in 1a position of message
     [java] Time to decode tor = 150.0 msec (69.90507MB/s)
     [java] Decoded Succeeded
     [java] Time to encode tor = 1562.0 msec (6.7130346MB/s)
     [java] Erasing 10485760 bytes in 1a position of message
     [java] Time to decode tor = 244.0 msec (42.974426MB/s)
     [java] Decoded Succeeded
     [java] Time to encode tor = 1423.0 msec (7.36877MB/s)
     [java] Erasing 10485760 bytes in 2a position of message
     [java] Time to decode tor = 186.0 msec (56.375053MB/s)
     [java] Decoded Succeeded
     [java] Time to encode tor = 1580.0 msec (6.636557MB/s)
     [java] Erasing 10485760 bytes in 0a position of message
     [java] Time to decode tor = 161.0 msec (65.128944MB/s)
     [java] Decoded Succeeded
     [java] Time to encode tor = 1617.0 msec (6.4847MB/s)
     [java] Erasing 10485760 bytes in 1a position of message
     [java] Time to decode tor = 214.0 msec (48.99888MB/s)
     [java] Decoded Succeeded
     [java] Time to encode tor = 1573.0 msec (6.6660905MB/s)
     [java] Erasing 10485760 bytes in 2a position of message
     [java] Time to decode tor = 152.0 msec (68.98526MB/s)
     [java] Decoded Succeeded
     [java] Time to encode tor = 1435.0 msec (7.30715MB/s)
     [java] Erasing 10485760 bytes in 3a position of message
     [java] Time to decode tor = 172.0 msec (60.963722MB/s)
     [java] Decoded Succeeded
     [java] Time to encode tor = 1449.0 msec (7.2365494MB/s)
     [java] Erasing 10485760 bytes in 0a position of message
     [java] Time to decode tor = 163.0 msec (64.32982MB/s)
     [java] Decoded Succeeded
     [java] Time to encode tor = 1380.0 msec (7.5983768MB/s)
     [java] Erasing 10485760 bytes in 0a position of message
     [java] Time to decode tor = 158.0 msec (66.36557MB/s)
     [java] Decoded Succeeded
     [java] Testing TOR(22,11)
     [java] Time to encode tor = 2394.0 msec (4.380017MB/s)
     [java] Erasing 10485760 bytes in 5a position of message
     [java] Time to decode tor = 171.0 msec (61.320232MB/s)
     [java] Decoded Succeeded
     [java] Time to encode tor = 2571.0 msec (4.0784755MB/s)
     [java] Erasing 10485760 bytes in 5a position of message
     [java] Time to decode tor = 165.0 msec (63.55006MB/s)
     [java] Decoded Succeeded
     [java] Time to encode tor = 2537.0 msec (4.1331334MB/s)
     [java] Erasing 10485760 bytes in 2a position of message
     [java] Time to decode tor = 161.0 msec (65.128944MB/s)
     [java] Decoded Succeeded
     [java] Time to encode tor = 2560.0 msec (4.096MB/s)
     [java] Erasing 10485760 bytes in 6a position of message
     [java] Time to decode tor = 163.0 msec (64.32982MB/s)
     [java] Decoded Succeeded
     [java] Time to encode tor = 2531.0 msec (4.1429315MB/s)
     [java] Erasing 10485760 bytes in 4a position of message
     [java] Time to decode tor = 167.0 msec (62.788982MB/s)
     [java] Decoded Succeeded
     [java] Time to encode tor = 2475.0 msec (4.2366705MB/s)
     [java] Erasing 10485760 bytes in 6a position of message
     [java] Time to decode tor = 165.0 msec (63.55006MB/s)
     [java] Decoded Succeeded
     [java] Time to encode tor = 2502.0 msec (4.1909513MB/s)
     [java] Erasing 10485760 bytes in 5a position of message
     [java] Time to decode tor = 160.0 msec (65.536MB/s)
     [java] Decoded Succeeded
     [java] Time to encode tor = 2485.0 msec (4.2196217MB/s)
     [java] Erasing 10485760 bytes in 8a position of message
     [java] Time to decode tor = 177.0 msec (59.24158MB/s)
     [java] Decoded Succeeded
     [java] Time to encode tor = 2497.0 msec (4.199343MB/s)
     [java] Erasing 10485760 bytes in 9a position of message
     [java] Time to decode tor = 167.0 msec (62.788982MB/s)
     [java] Decoded Succeeded
     [java] Time to encode tor = 2529.0 msec (4.146208MB/s)
     [java] Erasing 10485760 bytes in 1a position of message
     [java] Time to decode tor = 176.0 msec (59.578182MB/s)
     [java] Decoded Succeeded
     [java] Time to encode tor = 2495.0 msec (4.202709MB/s)
     [java] Erasing 10485760 bytes in 9a position of message
     [java] Time to decode tor = 158.0 msec (66.36557MB/s)
     [java] Decoded Succeeded
     [java] Time to encode tor = 2489.0 msec (4.2128406MB/s)
     [java] Erasing 10485760 bytes in 7a position of message
     [java] Time to decode tor = 168.0 msec (62.415237MB/s)
     [java] Decoded Succeeded
     [java] Time to encode tor = 2467.0 msec (4.2504096MB/s)
     [java] Erasing 10485760 bytes in 3a position of message
     [java] Time to decode tor = 151.0 msec (69.442116MB/s)
     [java] Decoded Succeeded
     [java] Time to encode tor = 2489.0 msec (4.2128406MB/s)
     [java] Erasing 10485760 bytes in 2a position of message
     [java] Time to decode tor = 149.0 msec (70.37423MB/s)
     [java] Decoded Succeeded
     [java] Time to encode tor = 2513.0 msec (4.1726065MB/s)
     [java] Erasing 10485760 bytes in 5a position of message
     [java] Time to decode tor = 150.0 msec (69.90507MB/s)
     [java] Decoded Succeeded
     [java] Time to encode tor = 2631.0 msec (3.9854655MB/s)
     [java] Erasing 10485760 bytes in 2a position of message
     [java] Time to decode tor = 151.0 msec (69.442116MB/s)
     [java] Decoded Succeeded
     [java] Time to encode tor = 2534.0 msec (4.1380267MB/s)
     [java] Erasing 10485760 bytes in 3a position of message
     [java] Time to decode tor = 151.0 msec (69.442116MB/s)
     [java] Decoded Succeeded
     [java] Time to encode tor = 2502.0 msec (4.1909513MB/s)
     [java] Erasing 10485760 bytes in 2a position of message
     [java] Time to decode tor = 150.0 msec (69.90507MB/s)
     [java] Decoded Succeeded
     [java] Time to encode tor = 2556.0 msec (4.10241MB/s)
     [java] Erasing 10485760 bytes in 8a position of message
     [java] Time to decode tor = 159.0 msec (65.94817MB/s)
     [java] Decoded Succeeded
     [java] Time to encode tor = 2492.0 msec (4.207769MB/s)
     [java] Erasing 10485760 bytes in 9a position of message
     [java] Time to decode tor = 160.0 msec (65.536MB/s)
     [java] Decoded Succeeded
     [java] Testing TOR(6,3)
     [java] Time to encode tor = 563.0 msec (18.624796MB/s)
     [java] Erasing 10485760 bytes in 1a position of message
     [java] Time to decode tor = 155.0 msec (67.65006MB/s)
     [java] Decoded Succeeded
     [java] Time to encode tor = 727.0 msec (14.423328MB/s)
     [java] Erasing 10485760 bytes in 2a position of message
     [java] Time to decode tor = 149.0 msec (70.37423MB/s)
     [java] Decoded Succeeded
     [java] Time to encode tor = 694.0 msec (15.109164MB/s)
     [java] Erasing 10485760 bytes in 0a position of message
     [java] Time to decode tor = 164.0 msec (63.93756MB/s)
     [java] Decoded Succeeded
     [java] Time to encode tor = 759.0 msec (13.81523MB/s)
     [java] Erasing 10485760 bytes in 0a position of message
     [java] Time to decode tor = 161.0 msec (65.128944MB/s)
     [java] Decoded Succeeded
     [java] Time to encode tor = 583.0 msec (17.985867MB/s)
     [java] Erasing 10485760 bytes in 2a position of message
     [java] Time to decode tor = 151.0 msec (69.442116MB/s)
     [java] Decoded Succeeded
     [java] Time to encode tor = 602.0 msec (17.418205MB/s)
     [java] Erasing 10485760 bytes in 0a position of message
     [java] Time to decode tor = 157.0 msec (66.78828MB/s)
     [java] Decoded Succeeded
     [java] Time to encode tor = 598.0 msec (17.534716MB/s)
     [java] Erasing 10485760 bytes in 0a position of message
     [java] Time to decode tor = 167.0 msec (62.788982MB/s)
     [java] Decoded Succeeded
     [java] Time to encode tor = 767.0 msec (13.671134MB/s)
     [java] Erasing 10485760 bytes in 2a position of message
     [java] Time to decode tor = 148.0 msec (70.84973MB/s)
     [java] Decoded Succeeded
     [java] Time to encode tor = 763.0 msec (13.742805MB/s)
     [java] Erasing 10485760 bytes in 0a position of message
     [java] Time to decode tor = 170.0 msec (61.680943MB/s)
     [java] Decoded Succeeded
     [java] Time to encode tor = 672.0 msec (15.603809MB/s)
     [java] Erasing 10485760 bytes in 1a position of message
     [java] Time to decode tor = 150.0 msec (69.90507MB/s)
     [java] Decoded Succeeded
     [java] Time to encode tor = 552.0 msec (18.995941MB/s)
     [java] Erasing 10485760 bytes in 2a position of message
     [java] Time to decode tor = 158.0 msec (66.36557MB/s)
     [java] Decoded Succeeded
     [java] Time to encode tor = 572.0 msec (18.331749MB/s)
     [java] Erasing 10485760 bytes in 2a position of message
     [java] Time to decode tor = 159.0 msec (65.94817MB/s)
     [java] Decoded Succeeded
     [java] Time to encode tor = 640.0 msec (16.384MB/s)
     [java] Erasing 10485760 bytes in 0a position of message
     [java] Time to decode tor = 175.0 msec (59.91863MB/s)
     [java] Decoded Succeeded
     [java] Time to encode tor = 727.0 msec (14.423328MB/s)
     [java] Erasing 10485760 bytes in 1a position of message
     [java] Time to decode tor = 158.0 msec (66.36557MB/s)
     [java] Decoded Succeeded
     [java] Time to encode tor = 744.0 msec (14.093763MB/s)
     [java] Erasing 10485760 bytes in 0a position of message
     [java] Time to decode tor = 188.0 msec (55.77532MB/s)
     [java] Decoded Succeeded
     [java] Time to encode tor = 704.0 msec (14.894546MB/s)
     [java] Erasing 10485760 bytes in 0a position of message
     [java] Time to decode tor = 164.0 msec (63.93756MB/s)
     [java] Decoded Succeeded
     [java] Time to encode tor = 554.0 msec (18.927364MB/s)
     [java] Erasing 10485760 bytes in 1a position of message
     [java] Time to decode tor = 164.0 msec (63.93756MB/s)
     [java] Decoded Succeeded
     [java] Time to encode tor = 577.0 msec (18.172894MB/s)
     [java] Erasing 10485760 bytes in 1a position of message
     [java] Time to decode tor = 164.0 msec (63.93756MB/s)
     [java] Decoded Succeeded
     [java] Time to encode tor = 803.0 msec (13.058231MB/s)
     [java] Erasing 10485760 bytes in 1a position of message
     [java] Time to decode tor = 164.0 msec (63.93756MB/s)
     [java] Decoded Succeeded
     [java] Time to encode tor = 831.0 msec (12.618243MB/s)
     [java] Erasing 10485760 bytes in 2a position of message
     [java] Time to decode tor = 169.0 msec (62.045918MB/s)
     [java] Decoded Succeeded
     [java] Testing TOR(10,5)
     [java] Time to encode tor = 1105.0 msec (9.489375MB/s)
     [java] Erasing 10485760 bytes in 4a position of message
     [java] Time to decode tor = 150.0 msec (69.90507MB/s)
     [java] Decoded Succeeded
     [java] Time to encode tor = 1411.0 msec (7.431439MB/s)
     [java] Erasing 10485760 bytes in 2a position of message
     [java] Time to decode tor = 150.0 msec (69.90507MB/s)
     [java] Decoded Succeeded
     [java] Time to encode tor = 1364.0 msec (7.687507MB/s)
     [java] Erasing 10485760 bytes in 1a position of message
     [java] Time to decode tor = 154.0 msec (68.08935MB/s)
     [java] Decoded Succeeded
     [java] Time to encode tor = 1307.0 msec (8.02277MB/s)
     [java] Erasing 10485760 bytes in 4a position of message
     [java] Time to decode tor = 152.0 msec (68.98526MB/s)
     [java] Decoded Succeeded
     [java] Time to encode tor = 1124.0 msec (9.328968MB/s)
     [java] Erasing 10485760 bytes in 4a position of message
     [java] Time to decode tor = 148.0 msec (70.84973MB/s)
     [java] Decoded Succeeded
     [java] Time to encode tor = 1436.0 msec (7.302061MB/s)
     [java] Erasing 10485760 bytes in 1a position of message
     [java] Time to decode tor = 153.0 msec (68.53438MB/s)
     [java] Decoded Succeeded
     [java] Time to encode tor = 1381.0 msec (7.5928745MB/s)
     [java] Erasing 10485760 bytes in 1a position of message
     [java] Time to decode tor = 160.0 msec (65.536MB/s)
     [java] Decoded Succeeded
     [java] Time to encode tor = 1387.0 msec (7.560029MB/s)
     [java] Erasing 10485760 bytes in 2a position of message
     [java] Time to decode tor = 149.0 msec (70.37423MB/s)
     [java] Decoded Succeeded
     [java] Time to encode tor = 1320.0 msec (7.9437575MB/s)
     [java] Erasing 10485760 bytes in 2a position of message
     [java] Time to decode tor = 153.0 msec (68.53438MB/s)
     [java] Decoded Succeeded
     [java] Time to encode tor = 1124.0 msec (9.328968MB/s)
     [java] Erasing 10485760 bytes in 0a position of message
     [java] Time to decode tor = 168.0 msec (62.415237MB/s)
     [java] Decoded Succeeded
     [java] Time to encode tor = 1491.0 msec (7.032703MB/s)
     [java] Erasing 10485760 bytes in 4a position of message
     [java] Time to decode tor = 181.0 msec (57.932377MB/s)
     [java] Decoded Succeeded
     [java] Time to encode tor = 1446.0 msec (7.251563MB/s)
     [java] Erasing 10485760 bytes in 3a position of message
     [java] Time to decode tor = 152.0 msec (68.98526MB/s)
     [java] Decoded Succeeded
     [java] Time to encode tor = 1355.0 msec (7.7385683MB/s)
     [java] Erasing 10485760 bytes in 1a position of message
     [java] Time to decode tor = 162.0 msec (64.72691MB/s)
     [java] Decoded Succeeded
     [java] Time to encode tor = 1334.0 msec (7.8603897MB/s)
     [java] Erasing 10485760 bytes in 2a position of message
     [java] Time to decode tor = 165.0 msec (63.55006MB/s)
     [java] Decoded Succeeded
     [java] Time to encode tor = 1145.0 msec (9.157869MB/s)
     [java] Erasing 10485760 bytes in 0a position of message
     [java] Time to decode tor = 169.0 msec (62.045918MB/s)
     [java] Decoded Succeeded
     [java] Time to encode tor = 1427.0 msec (7.348115MB/s)
     [java] Erasing 10485760 bytes in 1a position of message
     [java] Time to decode tor = 153.0 msec (68.53438MB/s)
     [java] Decoded Succeeded
     [java] Time to encode tor = 1384.0 msec (7.576416MB/s)
     [java] Erasing 10485760 bytes in 3a position of message
     [java] Time to decode tor = 170.0 msec (61.680943MB/s)
     [java] Decoded Succeeded
     [java] Time to encode tor = 1351.0 msec (7.7614803MB/s)
     [java] Erasing 10485760 bytes in 3a position of message
     [java] Time to decode tor = 147.0 msec (71.3317MB/s)
     [java] Decoded Succeeded
     [java] Time to encode tor = 1351.0 msec (7.7614803MB/s)
     [java] Erasing 10485760 bytes in 2a position of message
     [java] Time to decode tor = 154.0 msec (68.08935MB/s)
     [java] Decoded Succeeded
     [java] Time to encode tor = 1100.0 msec (9.532509MB/s)
     [java] Erasing 10485760 bytes in 3a position of message
     [java] Time to decode tor = 151.0 msec (69.442116MB/s)
     [java] Decoded Succeeded
     [java] Testing TOR(22,11)
     [java] Time to encode tor = 2438.0 msec (4.300968MB/s)
     [java] Erasing 10485760 bytes in 9a position of message
     [java] Time to decode tor = 152.0 msec (68.98526MB/s)
     [java] Decoded Succeeded
     [java] Time to encode tor = 2557.0 msec (4.1008058MB/s)
     [java] Erasing 10485760 bytes in 2a position of message
     [java] Time to decode tor = 167.0 msec (62.788982MB/s)
     [java] Decoded Succeeded
     [java] Time to encode tor = 2649.0 msec (3.9583843MB/s)
     [java] Erasing 10485760 bytes in 4a position of message
     [java] Time to decode tor = 153.0 msec (68.53438MB/s)
     [java] Decoded Succeeded
     [java] Time to encode tor = 2639.0 msec (3.973384MB/s)
     [java] Erasing 10485760 bytes in 9a position of message
     [java] Time to decode tor = 164.0 msec (63.93756MB/s)
     [java] Decoded Succeeded
     [java] Time to encode tor = 2504.0 msec (4.187604MB/s)
     [java] Erasing 10485760 bytes in 5a position of message
     [java] Time to decode tor = 148.0 msec (70.84973MB/s)
     [java] Decoded Succeeded
     [java] Time to encode tor = 2482.0 msec (4.224722MB/s)
     [java] Erasing 10485760 bytes in 10a position of message
     [java] Time to decode tor = 150.0 msec (69.90507MB/s)
     [java] Decoded Succeeded
     [java] Time to encode tor = 2473.0 msec (4.240097MB/s)
     [java] Erasing 10485760 bytes in 5a position of message
     [java] Time to decode tor = 149.0 msec (70.37423MB/s)
     [java] Decoded Succeeded
     [java] Time to encode tor = 2547.0 msec (4.116906MB/s)
     [java] Erasing 10485760 bytes in 3a position of message
     [java] Time to decode tor = 149.0 msec (70.37423MB/s)
     [java] Decoded Succeeded
     [java] Time to encode tor = 2491.0 msec (4.209458MB/s)
     [java] Erasing 10485760 bytes in 5a position of message
     [java] Time to decode tor = 148.0 msec (70.84973MB/s)
     [java] Decoded Succeeded
     [java] Time to encode tor = 2490.0 msec (4.2111487MB/s)
     [java] Erasing 10485760 bytes in 0a position of message
     [java] Time to decode tor = 181.0 msec (57.932377MB/s)
     [java] Decoded Succeeded
     [java] Time to encode tor = 2580.0 msec (4.064248MB/s)
     [java] Erasing 10485760 bytes in 6a position of message
     [java] Time to decode tor = 150.0 msec (69.90507MB/s)
     [java] Decoded Succeeded
     [java] Time to encode tor = 2494.0 msec (4.2043943MB/s)
     [java] Erasing 10485760 bytes in 5a position of message
     [java] Time to decode tor = 158.0 msec (66.36557MB/s)
     [java] Decoded Succeeded
     [java] Time to encode tor = 2756.0 msec (3.8047025MB/s)
     [java] Erasing 10485760 bytes in 7a position of message
     [java] Time to decode tor = 148.0 msec (70.84973MB/s)
     [java] Decoded Succeeded
     [java] Time to encode tor = 2544.0 msec (4.121761MB/s)
     [java] Erasing 10485760 bytes in 5a position of message
     [java] Time to decode tor = 150.0 msec (69.90507MB/s)
     [java] Decoded Succeeded
     [java] Time to encode tor = 2501.0 msec (4.192627MB/s)
     [java] Erasing 10485760 bytes in 0a position of message
     [java] Time to decode tor = 157.0 msec (66.78828MB/s)
     [java] Decoded Succeeded
     [java] Time to encode tor = 2467.0 msec (4.2504096MB/s)
     [java] Erasing 10485760 bytes in 3a position of message
     [java] Time to decode tor = 149.0 msec (70.37423MB/s)
     [java] Decoded Succeeded
     [java] Time to encode tor = 2485.0 msec (4.2196217MB/s)
     [java] Erasing 10485760 bytes in 9a position of message
     [java] Time to decode tor = 151.0 msec (69.442116MB/s)
     [java] Decoded Succeeded
     [java] Time to encode tor = 2465.0 msec (4.253858MB/s)
     [java] Erasing 10485760 bytes in 10a position of message
     [java] Time to decode tor = 152.0 msec (68.98526MB/s)
     [java] Decoded Succeeded
     [java] Time to encode tor = 2550.0 msec (4.112063MB/s)
     [java] Erasing 10485760 bytes in 3a position of message
     [java] Time to decode tor = 150.0 msec (69.90507MB/s)
     [java] Decoded Succeeded
     [java] Time to encode tor = 2541.0 msec (4.1266274MB/s)
     [java] Erasing 10485760 bytes in 9a position of message
     [java] Time to decode tor = 150.0 msec (69.90507MB/s)
     [java] Decoded Succeeded
     [java] Testing TOR(14,7)
     [java] Time to encode tor = 1532.0 msec (6.844491MB/s)
     [java] Erasing 10485760 bytes in 6a position of message
     [java] Time to decode tor = 151.0 msec (69.442116MB/s)
     [java] Decoded Succeeded
     [java] Time to encode tor = 1537.0 msec (6.822225MB/s)
     [java] Erasing 10485760 bytes in 3a position of message
     [java] Time to decode tor = 154.0 msec (68.08935MB/s)
     [java] Decoded Succeeded
     [java] Time to encode tor = 1710.0 msec (6.1320233MB/s)
     [java] Erasing 10485760 bytes in 2a position of message
     [java] Time to decode tor = 202.0 msec (51.909702MB/s)
     [java] Decoded Succeeded
     [java] Time to encode tor = 1571.0 msec (6.6745768MB/s)
     [java] Erasing 10485760 bytes in 0a position of message
     [java] Time to decode tor = 158.0 msec (66.36557MB/s)
     [java] Decoded Succeeded
     [java] Time to encode tor = 1726.0 msec (6.0751796MB/s)
     [java] Erasing 10485760 bytes in 6a position of message
     [java] Time to decode tor = 149.0 msec (70.37423MB/s)
     [java] Decoded Succeeded
     [java] Time to encode tor = 1582.0 msec (6.6281667MB/s)
     [java] Erasing 10485760 bytes in 6a position of message
     [java] Time to decode tor = 147.0 msec (71.3317MB/s)
     [java] Decoded Succeeded
     [java] Time to encode tor = 1742.0 msec (6.01938MB/s)
     [java] Erasing 10485760 bytes in 0a position of message
     [java] Time to decode tor = 166.0 msec (63.16723MB/s)
     [java] Decoded Succeeded
     [java] Time to encode tor = 1564.0 msec (6.70445MB/s)
     [java] Erasing 10485760 bytes in 0a position of message
     [java] Time to decode tor = 157.0 msec (66.78828MB/s)
     [java] Decoded Succeeded
     [java] Time to encode tor = 1868.0 msec (5.613362MB/s)
     [java] Erasing 10485760 bytes in 4a position of message
     [java] Time to decode tor = 204.0 msec (51.400784MB/s)
     [java] Decoded Succeeded
     [java] Time to encode tor = 1581.0 msec (6.6323595MB/s)
     [java] Erasing 10485760 bytes in 2a position of message
     [java] Time to decode tor = 149.0 msec (70.37423MB/s)
     [java] Decoded Succeeded
     [java] Time to encode tor = 1747.0 msec (6.0021524MB/s)
     [java] Erasing 10485760 bytes in 2a position of message
     [java] Time to decode tor = 208.0 msec (50.412308MB/s)
     [java] Decoded Succeeded
     [java] Time to encode tor = 1549.0 msec (6.769374MB/s)
     [java] Erasing 10485760 bytes in 2a position of message
     [java] Time to decode tor = 159.0 msec (65.94817MB/s)
     [java] Decoded Succeeded
     [java] Time to encode tor = 1698.0 msec (6.1753592MB/s)
     [java] Erasing 10485760 bytes in 6a position of message
     [java] Time to decode tor = 165.0 msec (63.55006MB/s)
     [java] Decoded Succeeded
     [java] Time to encode tor = 1536.0 msec (6.826667MB/s)
     [java] Erasing 10485760 bytes in 6a position of message
     [java] Time to decode tor = 148.0 msec (70.84973MB/s)
     [java] Decoded Succeeded
     [java] Time to encode tor = 1712.0 msec (6.12486MB/s)
     [java] Erasing 10485760 bytes in 3a position of message
     [java] Time to decode tor = 227.0 msec (46.192776MB/s)
     [java] Decoded Succeeded
     [java] Time to encode tor = 1493.0 msec (7.023282MB/s)
     [java] Erasing 10485760 bytes in 5a position of message
     [java] Time to decode tor = 170.0 msec (61.680943MB/s)
     [java] Decoded Succeeded
     [java] Time to encode tor = 1686.0 msec (6.219312MB/s)
     [java] Erasing 10485760 bytes in 2a position of message
     [java] Time to decode tor = 212.0 msec (49.461132MB/s)
     [java] Decoded Succeeded
     [java] Time to encode tor = 1508.0 msec (6.9534216MB/s)
     [java] Erasing 10485760 bytes in 3a position of message
     [java] Time to decode tor = 149.0 msec (70.37423MB/s)
     [java] Decoded Succeeded
     [java] Time to encode tor = 1709.0 msec (6.1356115MB/s)
     [java] Erasing 10485760 bytes in 0a position of message
     [java] Time to decode tor = 159.0 msec (65.94817MB/s)
     [java] Decoded Succeeded
     [java] Time to encode tor = 1568.0 msec (6.687347MB/s)
     [java] Erasing 10485760 bytes in 5a position of message
     [java] Time to decode tor = 148.0 msec (70.84973MB/s)
     [java] Decoded Succeeded
     [java] Testing TOR(14,7)
     [java] Time to encode tor = 1783.0 msec (5.8809648MB/s)
     [java] Erasing 10485760 bytes in 0a position of message
     [java] Time to decode tor = 161.0 msec (65.128944MB/s)
     [java] Decoded Succeeded
     [java] Time to encode tor = 1582.0 msec (6.6281667MB/s)
     [java] Erasing 10485760 bytes in 4a position of message
     [java] Time to decode tor = 150.0 msec (69.90507MB/s)
     [java] Decoded Succeeded
     [java] Time to encode tor = 1752.0 msec (5.985023MB/s)
     [java] Erasing 10485760 bytes in 5a position of message
     [java] Time to decode tor = 159.0 msec (65.94817MB/s)
     [java] Decoded Succeeded
     [java] Time to encode tor = 1552.0 msec (6.7562885MB/s)
     [java] Erasing 10485760 bytes in 0a position of message
     [java] Time to decode tor = 158.0 msec (66.36557MB/s)
     [java] Decoded Succeeded
     [java] Time to encode tor = 1699.0 msec (6.1717243MB/s)
     [java] Erasing 10485760 bytes in 3a position of message
     [java] Time to decode tor = 205.0 msec (51.150047MB/s)
     [java] Decoded Succeeded
     [java] Time to encode tor = 1469.0 msec (7.1380258MB/s)
     [java] Erasing 10485760 bytes in 5a position of message
     [java] Time to decode tor = 154.0 msec (68.08935MB/s)
     [java] Decoded Succeeded
     [java] Time to encode tor = 1710.0 msec (6.1320233MB/s)
     [java] Erasing 10485760 bytes in 3a position of message
     [java] Time to decode tor = 210.0 msec (49.93219MB/s)
     [java] Decoded Succeeded
     [java] Time to encode tor = 1482.0 msec (7.075412MB/s)
     [java] Erasing 10485760 bytes in 2a position of message
     [java] Time to decode tor = 147.0 msec (71.3317MB/s)
     [java] Decoded Succeeded
     [java] Time to encode tor = 1668.0 msec (6.286427MB/s)
     [java] Erasing 10485760 bytes in 2a position of message
     [java] Time to decode tor = 203.0 msec (51.65399MB/s)
     [java] Decoded Succeeded
     [java] Time to encode tor = 1466.0 msec (7.152633MB/s)
     [java] Erasing 10485760 bytes in 0a position of message
     [java] Time to decode tor = 159.0 msec (65.94817MB/s)
     [java] Decoded Succeeded
     [java] Time to encode tor = 1671.0 msec (6.275141MB/s)
     [java] Erasing 10485760 bytes in 6a position of message
     [java] Time to decode tor = 150.0 msec (69.90507MB/s)
     [java] Decoded Succeeded
     [java] Time to encode tor = 1482.0 msec (7.075412MB/s)
     [java] Erasing 10485760 bytes in 2a position of message
     [java] Time to decode tor = 161.0 msec (65.128944MB/s)
     [java] Decoded Succeeded
     [java] Time to encode tor = 1634.0 msec (6.417234MB/s)
     [java] Erasing 10485760 bytes in 4a position of message
     [java] Time to decode tor = 211.0 msec (49.695545MB/s)
     [java] Decoded Succeeded
     [java] Time to encode tor = 1460.0 msec (7.1820273MB/s)
     [java] Erasing 10485760 bytes in 3a position of message
     [java] Time to decode tor = 159.0 msec (65.94817MB/s)
     [java] Decoded Succeeded
     [java] Time to encode tor = 1651.0 msec (6.3511567MB/s)
     [java] Erasing 10485760 bytes in 4a position of message
     [java] Time to decode tor = 202.0 msec (51.909702MB/s)
     [java] Decoded Succeeded
     [java] Time to encode tor = 1464.0 msec (7.1624045MB/s)
     [java] Erasing 10485760 bytes in 5a position of message
     [java] Time to decode tor = 148.0 msec (70.84973MB/s)
     [java] Decoded Succeeded
     [java] Time to encode tor = 1691.0 msec (6.2009225MB/s)
     [java] Erasing 10485760 bytes in 1a position of message
     [java] Time to decode tor = 200.0 msec (52.4288MB/s)
     [java] Decoded Succeeded
     [java] Time to encode tor = 1483.0 msec (7.0706406MB/s)
     [java] Erasing 10485760 bytes in 6a position of message
     [java] Time to decode tor = 149.0 msec (70.37423MB/s)
     [java] Decoded Succeeded
     [java] Time to encode tor = 1695.0 msec (6.1862893MB/s)
     [java] Erasing 10485760 bytes in 6a position of message
     [java] Time to decode tor = 149.0 msec (70.37423MB/s)
     [java] Decoded Succeeded
     [java] Time to encode tor = 1494.0 msec (7.018581MB/s)
     [java] Erasing 10485760 bytes in 5a position of message
     [java] Time to decode tor = 154.0 msec (68.08935MB/s)
     [java] Decoded Succeeded
     [java] Testing TOR(20,10)
     [java] Time to encode tor = 2871.0 msec (3.6523023MB/s)
     [java] Erasing 10485760 bytes in 7a position of message
     [java] Time to decode tor = 157.0 msec (66.78828MB/s)
     [java] Decoded Succeeded
     [java] Time to encode tor = 2107.0 msec (4.97663MB/s)
     [java] Erasing 10485760 bytes in 1a position of message
     [java] Time to decode tor = 149.0 msec (70.37423MB/s)
     [java] Decoded Succeeded
     [java] Time to encode tor = 2337.0 msec (4.4868464MB/s)
     [java] Erasing 10485760 bytes in 4a position of message
     [java] Time to decode tor = 153.0 msec (68.53438MB/s)
     [java] Decoded Succeeded
     [java] Time to encode tor = 2748.0 msec (3.8157787MB/s)
     [java] Erasing 10485760 bytes in 4a position of message
     [java] Time to decode tor = 177.0 msec (59.24158MB/s)
     [java] Decoded Succeeded
     [java] Time to encode tor = 2223.0 msec (4.716941MB/s)
     [java] Erasing 10485760 bytes in 3a position of message
     [java] Time to decode tor = 155.0 msec (67.65006MB/s)
     [java] Decoded Succeeded
     [java] Time to encode tor = 2219.0 msec (4.725444MB/s)
     [java] Erasing 10485760 bytes in 7a position of message
     [java] Time to decode tor = 172.0 msec (60.963722MB/s)
     [java] Decoded Succeeded
     [java] Time to encode tor = 2198.0 msec (4.7705913MB/s)
     [java] Erasing 10485760 bytes in 3a position of message
     [java] Time to decode tor = 184.0 msec (56.987827MB/s)
     [java] Decoded Succeeded
     [java] Time to encode tor = 2084.0 msec (5.0315547MB/s)
     [java] Erasing 10485760 bytes in 8a position of message
     [java] Time to decode tor = 166.0 msec (63.16723MB/s)
     [java] Decoded Succeeded
     [java] Time to encode tor = 2121.0 msec (4.9437814MB/s)
     [java] Erasing 10485760 bytes in 6a position of message
     [java] Time to decode tor = 162.0 msec (64.72691MB/s)
     [java] Decoded Succeeded
     [java] Time to encode tor = 2266.0 msec (4.6274314MB/s)
     [java] Erasing 10485760 bytes in 0a position of message
     [java] Time to decode tor = 177.0 msec (59.24158MB/s)
     [java] Decoded Succeeded
     [java] Time to encode tor = 2476.0 msec (4.2349596MB/s)
     [java] Erasing 10485760 bytes in 4a position of message
     [java] Time to decode tor = 201.0 msec (52.16796MB/s)
     [java] Decoded Succeeded
     [java] Time to encode tor = 2147.0 msec (4.8839126MB/s)
     [java] Erasing 10485760 bytes in 7a position of message
     [java] Time to decode tor = 150.0 msec (69.90507MB/s)
     [java] Decoded Succeeded
     [java] Time to encode tor = 2131.0 msec (4.920582MB/s)
     [java] Erasing 10485760 bytes in 3a position of message
     [java] Time to decode tor = 157.0 msec (66.78828MB/s)
     [java] Decoded Succeeded
     [java] Time to encode tor = 2087.0 msec (5.024322MB/s)
     [java] Erasing 10485760 bytes in 7a position of message
     [java] Time to decode tor = 163.0 msec (64.32982MB/s)
     [java] Decoded Succeeded
     [java] Time to encode tor = 2183.0 msec (4.8033714MB/s)
     [java] Erasing 10485760 bytes in 9a position of message
     [java] Time to decode tor = 164.0 msec (63.93756MB/s)
     [java] Decoded Succeeded
     [java] Time to encode tor = 2191.0 msec (4.785833MB/s)
     [java] Erasing 10485760 bytes in 9a position of message
     [java] Time to decode tor = 152.0 msec (68.98526MB/s)
     [java] Decoded Succeeded
     [java] Time to encode tor = 2111.0 msec (4.9672003MB/s)
     [java] Erasing 10485760 bytes in 0a position of message
     [java] Time to decode tor = 175.0 msec (59.91863MB/s)
     [java] Decoded Succeeded
     [java] Time to encode tor = 2194.0 msec (4.779289MB/s)
     [java] Erasing 10485760 bytes in 6a position of message
     [java] Time to decode tor = 151.0 msec (69.442116MB/s)
     [java] Decoded Succeeded
     [java] Time to encode tor = 2166.0 msec (4.841071MB/s)
     [java] Erasing 10485760 bytes in 5a position of message
     [java] Time to decode tor = 154.0 msec (68.08935MB/s)
     [java] Decoded Succeeded
     [java] Time to encode tor = 2171.0 msec (4.8299217MB/s)
     [java] Erasing 10485760 bytes in 8a position of message
     [java] Time to decode tor = 158.0 msec (66.36557MB/s)
     [java] Decoded Succeeded
     [java] Test successfully.

BUILD SUCCESSFUL
Total time: 28 minutes 0 seconds
